(export (version D)
  (design
    (source /home/dave/proj/boards/plri/plri.sch)
    (date "Tue 27 Oct 2020 10:16:39 PM PDT")
    (tool "Eeschema 5.1.7+dfsg1-1~bpo10+1")
    (sheet (number 1) (name /) (tstamps /)
      (title_block
        (title "PLRI Interface")
        (company)
        (rev)
        (date 2020-08-14)
        (source plri.sch)
        (comment (number 1) (value ""))
        (comment (number 2) (value ""))
        (comment (number 3) (value ""))
        (comment (number 4) (value "")))))
  (components
    (comp (ref U1)
      (value 74HC08)
      (footprint Package_SO:SSOP-14_5.3x6.2mm_P0.65mm)
      (datasheet http://www.ti.com/lit/gpn/sn74LS08)
      (libsource (lib 74xx) (part 74LS08) (description "Quad And2"))
      (sheetpath (names /) (tstamps /))
      (tstamp 5F3C64B0))
    (comp (ref R14)
      (value 120)
      (footprint Resistor_SMD:R_0603_1608Metric)
      (datasheet ~)
      (libsource (lib Device) (part R_US) (description "Resistor, US symbol"))
      (sheetpath (names /) (tstamps /))
      (tstamp 5F3D317A))
    (comp (ref R11)
      (value 3K3)
      (footprint Resistor_SMD:R_0603_1608Metric)
      (datasheet ~)
      (libsource (lib Device) (part R_US) (description "Resistor, US symbol"))
      (sheetpath (names /) (tstamps /))
      (tstamp 5F3E0929))
    (comp (ref R7)
      (value 2M2)
      (footprint Resistor_SMD:R_0603_1608Metric)
      (datasheet ~)
      (libsource (lib Device) (part R_US) (description "Resistor, US symbol"))
      (sheetpath (names /) (tstamps /))
      (tstamp 5F3F4D4D))
    (comp (ref D1)
      (value 1N914)
      (footprint Diode_SMD:D_SOD-323F)
      (datasheet http://www.vishay.com/docs/85622/1n914.pdf)
      (libsource (lib Diode) (part 1N914) (description "100V 0.3A Small Signal Fast Switching Diode, DO-35"))
      (sheetpath (names /) (tstamps /))
      (tstamp 5F3FEB8D))
    (comp (ref R3)
      (value 10K)
      (footprint Potentiometer_SMD:Potentiometer_Bourns_3314J_Vertical)
      (datasheet ~)
      (libsource (lib Device) (part R_POT_US) (description "Potentiometer, US symbol"))
      (sheetpath (names /) (tstamps /))
      (tstamp 5F409296))
    (comp (ref R1)
      (value 100K)
      (footprint Resistor_SMD:R_0603_1608Metric)
      (datasheet ~)
      (libsource (lib Device) (part R_US) (description "Resistor, US symbol"))
      (sheetpath (names /) (tstamps /))
      (tstamp 5F43D76D))
    (comp (ref R6)
      (value 300K)
      (footprint Resistor_SMD:R_0603_1608Metric)
      (datasheet ~)
      (libsource (lib Device) (part R_US) (description "Resistor, US symbol"))
      (sheetpath (names /) (tstamps /))
      (tstamp 5F448CE8))
    (comp (ref R16)
      (value 120)
      (footprint Resistor_SMD:R_0603_1608Metric)
      (datasheet ~)
      (libsource (lib Device) (part R_US) (description "Resistor, US symbol"))
      (sheetpath (names /) (tstamps /))
      (tstamp 5F480BA2))
    (comp (ref LED1)
      (value POWER)
      (footprint LED_THT:LED_D3.0mm)
      (datasheet ~)
      (libsource (lib Device) (part LED) (description "Light emitting diode"))
      (sheetpath (names /) (tstamps /))
      (tstamp 5F49052C))
    (comp (ref LED2)
      (value DTMF)
      (footprint LED_THT:LED_D3.0mm)
      (datasheet ~)
      (libsource (lib Device) (part LED) (description "Light emitting diode"))
      (sheetpath (names /) (tstamps /))
      (tstamp 5F4A805B))
    (comp (ref Y1)
      (value 3.579545)
      (footprint Crystal:Crystal_SMD_5032-2Pin_5.0x3.2mm)
      (datasheet ~)
      (libsource (lib Device) (part Crystal_Small) (description "Two pin crystal, small symbol"))
      (sheetpath (names /) (tstamps /))
      (tstamp 5F4C4CB6))
    (comp (ref CONN1)
      (value "TO RADIO")
      (footprint Connector_PinHeader_2.54mm:PinHeader_2x05_P2.54mm_Horizontal)
      (datasheet " ~")
      (libsource (lib Connector) (part DB9_Female) (description "9-pin female D-SUB connector"))
      (sheetpath (names /) (tstamps /))
      (tstamp 5F4D765E))
    (comp (ref R13)
      (value 3K3)
      (footprint Resistor_SMD:R_0603_1608Metric)
      (datasheet ~)
      (libsource (lib Device) (part R_US) (description "Resistor, US symbol"))
      (sheetpath (names /) (tstamps /))
      (tstamp 5F4EE1B0))
    (comp (ref LED3)
      (value PTT)
      (footprint LED_THT:LED_D3.0mm)
      (datasheet ~)
      (libsource (lib Device) (part LED) (description "Light emitting diode"))
      (sheetpath (names /) (tstamps /))
      (tstamp 5F4FC3B3))
    (comp (ref R9)
      (value 1K)
      (footprint Resistor_SMD:R_0603_1608Metric)
      (datasheet ~)
      (libsource (lib Device) (part R_US) (description "Resistor, US symbol"))
      (sheetpath (names /) (tstamps /))
      (tstamp 5F50EB37))
    (comp (ref R12)
      (value 120)
      (footprint Resistor_SMD:R_0603_1608Metric)
      (datasheet ~)
      (libsource (lib Device) (part R_US) (description "Resistor, US symbol"))
      (sheetpath (names /) (tstamps /))
      (tstamp 5F53BAA2))
    (comp (ref R8)
      (value 2K2)
      (footprint Resistor_SMD:R_0603_1608Metric)
      (datasheet ~)
      (libsource (lib Device) (part R_US) (description "Resistor, US symbol"))
      (sheetpath (names /) (tstamps /))
      (tstamp 5F556BF5))
    (comp (ref LED4)
      (value COS)
      (footprint LED_THT:LED_D3.0mm)
      (datasheet ~)
      (libsource (lib Device) (part LED) (description "Light emitting diode"))
      (sheetpath (names /) (tstamps /))
      (tstamp 5F68EA1D))
    (comp (ref LED7)
      (value AUX3)
      (footprint LED_THT:LED_D3.0mm)
      (datasheet ~)
      (libsource (lib Device) (part LED) (description "Light emitting diode"))
      (sheetpath (names /) (tstamps /))
      (tstamp 5F6CD65A))
    (comp (ref LED6)
      (value AUX2)
      (footprint LED_THT:LED_D3.0mm)
      (datasheet ~)
      (libsource (lib Device) (part LED) (description "Light emitting diode"))
      (sheetpath (names /) (tstamps /))
      (tstamp 5F6E9716))
    (comp (ref LED5)
      (value AUX1)
      (footprint LED_THT:LED_D3.0mm)
      (datasheet ~)
      (libsource (lib Device) (part LED) (description "Light emitting diode"))
      (sheetpath (names /) (tstamps /))
      (tstamp 5F700949))
    (comp (ref D3)
      (value 1N914)
      (footprint Diode_SMD:D_SOD-323F)
      (datasheet http://www.vishay.com/docs/85622/1n914.pdf)
      (libsource (lib Diode) (part 1N914) (description "100V 0.3A Small Signal Fast Switching Diode, DO-35"))
      (sheetpath (names /) (tstamps /))
      (tstamp 5F722A0B))
    (comp (ref D4)
      (value 1N914)
      (footprint Diode_SMD:D_SOD-323F)
      (datasheet http://www.vishay.com/docs/85622/1n914.pdf)
      (libsource (lib Diode) (part 1N914) (description "100V 0.3A Small Signal Fast Switching Diode, DO-35"))
      (sheetpath (names /) (tstamps /))
      (tstamp 5F7317B7))
    (comp (ref D5)
      (value 1N914)
      (footprint Diode_SMD:D_SOD-323F)
      (datasheet http://www.vishay.com/docs/85622/1n914.pdf)
      (libsource (lib Diode) (part 1N914) (description "100V 0.3A Small Signal Fast Switching Diode, DO-35"))
      (sheetpath (names /) (tstamps /))
      (tstamp 5F73F33B))
    (comp (ref R23)
      (value 3K3)
      (footprint Resistor_SMD:R_0603_1608Metric)
      (datasheet ~)
      (libsource (lib Device) (part R_US) (description "Resistor, US symbol"))
      (sheetpath (names /) (tstamps /))
      (tstamp 5F749371))
    (comp (ref R32)
      (value 3K3)
      (footprint Resistor_SMD:R_0603_1608Metric)
      (datasheet ~)
      (libsource (lib Device) (part R_US) (description "Resistor, US symbol"))
      (sheetpath (names /) (tstamps /))
      (tstamp 5F7521F9))
    (comp (ref R25)
      (value 3K3)
      (footprint Resistor_SMD:R_0603_1608Metric)
      (datasheet ~)
      (libsource (lib Device) (part R_US) (description "Resistor, US symbol"))
      (sheetpath (names /) (tstamps /))
      (tstamp 5F75A016))
    (comp (ref R31)
      (value 120)
      (footprint Resistor_SMD:R_0603_1608Metric)
      (datasheet ~)
      (libsource (lib Device) (part R_US) (description "Resistor, US symbol"))
      (sheetpath (names /) (tstamps /))
      (tstamp 5F75F6FF))
    (comp (ref R34)
      (value 1K)
      (footprint Resistor_SMD:R_0603_1608Metric)
      (datasheet ~)
      (libsource (lib Device) (part R_US) (description "Resistor, US symbol"))
      (sheetpath (names /) (tstamps /))
      (tstamp 5F7671AC))
    (comp (ref R37)
      (value 3K3)
      (footprint Resistor_SMD:R_0603_1608Metric)
      (datasheet ~)
      (libsource (lib Device) (part R_US) (description "Resistor, US symbol"))
      (sheetpath (names /) (tstamps /))
      (tstamp 5F77B12C))
    (comp (ref R28)
      (value 1K)
      (footprint Resistor_SMD:R_0603_1608Metric)
      (datasheet ~)
      (libsource (lib Device) (part R_US) (description "Resistor, US symbol"))
      (sheetpath (names /) (tstamps /))
      (tstamp 5F788351))
    (comp (ref R44)
      (value 1K)
      (footprint Resistor_SMD:R_0603_1608Metric)
      (datasheet ~)
      (libsource (lib Device) (part R_US) (description "Resistor, US symbol"))
      (sheetpath (names /) (tstamps /))
      (tstamp 5F791E47))
    (comp (ref R47)
      (value 2K2)
      (footprint Resistor_SMD:R_0603_1608Metric)
      (datasheet ~)
      (libsource (lib Device) (part R_US) (description "Resistor, US symbol"))
      (sheetpath (names /) (tstamps /))
      (tstamp 5F7A6676))
    (comp (ref R41)
      (value 120)
      (footprint Resistor_SMD:R_0603_1608Metric)
      (datasheet ~)
      (libsource (lib Device) (part R_US) (description "Resistor, US symbol"))
      (sheetpath (names /) (tstamps /))
      (tstamp 5F7C6DCA))
    (comp (ref R38)
      (value 3K3)
      (footprint Resistor_SMD:R_0603_1608Metric)
      (datasheet ~)
      (libsource (lib Device) (part R_US) (description "Resistor, US symbol"))
      (sheetpath (names /) (tstamps /))
      (tstamp 5F7E70EB))
    (comp (ref R36)
      (value 3K3)
      (footprint Resistor_SMD:R_0603_1608Metric)
      (datasheet ~)
      (libsource (lib Device) (part R_US) (description "Resistor, US symbol"))
      (sheetpath (names /) (tstamps /))
      (tstamp 5F7EEF19))
    (comp (ref R40)
      (value 120)
      (footprint Resistor_SMD:R_0603_1608Metric)
      (datasheet ~)
      (libsource (lib Device) (part R_US) (description "Resistor, US symbol"))
      (sheetpath (names /) (tstamps /))
      (tstamp 5F7FA749))
    (comp (ref R46)
      (value 2K2)
      (footprint Resistor_SMD:R_0603_1608Metric)
      (datasheet ~)
      (libsource (lib Device) (part R_US) (description "Resistor, US symbol"))
      (sheetpath (names /) (tstamps /))
      (tstamp 5F7FAF68))
    (comp (ref R43)
      (value 1K)
      (footprint Resistor_SMD:R_0603_1608Metric)
      (datasheet ~)
      (libsource (lib Device) (part R_US) (description "Resistor, US symbol"))
      (sheetpath (names /) (tstamps /))
      (tstamp 5F7FB7C2))
    (comp (ref R39)
      (value 120)
      (footprint Resistor_SMD:R_0603_1608Metric)
      (datasheet ~)
      (libsource (lib Device) (part R_US) (description "Resistor, US symbol"))
      (sheetpath (names /) (tstamps /))
      (tstamp 5F824174))
    (comp (ref R42)
      (value 1K)
      (footprint Resistor_SMD:R_0603_1608Metric)
      (datasheet ~)
      (libsource (lib Device) (part R_US) (description "Resistor, US symbol"))
      (sheetpath (names /) (tstamps /))
      (tstamp 5F824804))
    (comp (ref R45)
      (value 2K2)
      (footprint Resistor_SMD:R_0603_1608Metric)
      (datasheet ~)
      (libsource (lib Device) (part R_US) (description "Resistor, US symbol"))
      (sheetpath (names /) (tstamps /))
      (tstamp 5F824F2B))
    (comp (ref JP3)
      (value AUX1)
      (footprint Connector_PinHeader_2.54mm:PinHeader_1x03_P2.54mm_Vertical)
      (datasheet ~)
      (fields
        (field (name Pin1) "Active High")
        (field (name Pin3) "Active Low"))
      (libsource (lib Jumper) (part Jumper_3_Open) (description "Jumper, 3-pole, both open"))
      (sheetpath (names /) (tstamps /))
      (tstamp 5F867BD8))
    (comp (ref JP4)
      (value AUX2)
      (footprint Connector_PinHeader_2.54mm:PinHeader_1x03_P2.54mm_Vertical)
      (datasheet ~)
      (fields
        (field (name Pin1) "Active High")
        (field (name Pin3) "Active Low"))
      (libsource (lib Jumper) (part Jumper_3_Open) (description "Jumper, 3-pole, both open"))
      (sheetpath (names /) (tstamps /))
      (tstamp 5F8BCEFE))
    (comp (ref JP5)
      (value AUX3)
      (footprint Connector_PinHeader_2.54mm:PinHeader_1x03_P2.54mm_Vertical)
      (datasheet ~)
      (fields
        (field (name Pin1) "Active High")
        (field (name Pin3) "Active Low"))
      (libsource (lib Jumper) (part Jumper_3_Open) (description "Jumper, 3-pole, both open"))
      (sheetpath (names /) (tstamps /))
      (tstamp 5F90F1B4))
    (comp (ref JP2)
      (value "COS INPUT")
      (footprint Connector_PinHeader_2.54mm:PinHeader_1x03_P2.54mm_Vertical)
      (datasheet ~)
      (fields
        (field (name Pin1) "Active High")
        (field (name Pin3) "Active Low"))
      (libsource (lib Jumper) (part Jumper_3_Open) (description "Jumper, 3-pole, both open"))
      (sheetpath (names /) (tstamps /))
      (tstamp 5F953954))
    (comp (ref JP1)
      (value PTT)
      (footprint Connector_PinHeader_2.54mm:PinHeader_1x03_P2.54mm_Vertical)
      (datasheet ~)
      (fields
        (field (name Pin1) "Active High")
        (field (name Pin3) "Active Low"))
      (libsource (lib Jumper) (part Jumper_3_Open) (description "Jumper, 3-pole, both open"))
      (sheetpath (names /) (tstamps /))
      (tstamp 5F98B1CB))
    (comp (ref D2)
      (value 1N914)
      (footprint Diode_SMD:D_SOD-323F)
      (datasheet http://www.vishay.com/docs/85622/1n914.pdf)
      (libsource (lib Diode) (part 1N914) (description "100V 0.3A Small Signal Fast Switching Diode, DO-35"))
      (sheetpath (names /) (tstamps /))
      (tstamp 5F9D59B0))
    (comp (ref C22)
      (value 0.1uF)
      (footprint Capacitor_SMD:C_0603_1608Metric)
      (datasheet ~)
      (libsource (lib Device) (part C_Small) (description "Unpolarized capacitor, small symbol"))
      (sheetpath (names /) (tstamps /))
      (tstamp 5F9E9AEF))
    (comp (ref C21)
      (value 0.1uF)
      (footprint Capacitor_SMD:C_0603_1608Metric)
      (datasheet ~)
      (libsource (lib Device) (part C_Small) (description "Unpolarized capacitor, small symbol"))
      (sheetpath (names /) (tstamps /))
      (tstamp 5F9F1620))
    (comp (ref C15)
      (value 0.1uF)
      (footprint Capacitor_SMD:C_0603_1608Metric)
      (datasheet ~)
      (libsource (lib Device) (part C_Small) (description "Unpolarized capacitor, small symbol"))
      (sheetpath (names /) (tstamps /))
      (tstamp 5FA06E47))
    (comp (ref C6)
      (value 0.1uF)
      (footprint Capacitor_SMD:C_0603_1608Metric)
      (datasheet ~)
      (libsource (lib Device) (part C_Small) (description "Unpolarized capacitor, small symbol"))
      (sheetpath (names /) (tstamps /))
      (tstamp 5FA207AC))
    (comp (ref CONN2)
      (value GPIO)
      (footprint Connector_PinSocket_2.54mm:PinSocket_2x20_P2.54mm_Vertical)
      (datasheet ~)
      (libsource (lib Connector_Generic) (part Conn_02x20_Odd_Even) (description "Generic connector, double row, 02x20, odd/even pin numbering scheme (row 1 odd numbers, row 2 even numbers), script generated (kicad-library-utils/schlib/autogen/connector/)"))
      (sheetpath (names /) (tstamps /))
      (tstamp 5FA8D13A))
    (comp (ref U3)
      (value HT9170D)
      (footprint Package_SO:SOIC-18W_7.5x11.6mm_P1.27mm)
      (datasheet http://www.holtek.com/documents/10179/116711/9170v111.pdf)
      (libsource (lib Interface_Telecom) (part HT9170D) (description "DTMF receiver with 4 bit output, SOIC-18"))
      (sheetpath (names /) (tstamps /))
      (tstamp 5F3FA299))
    (comp (ref Y2)
      (value "12.288 MHz")
      (footprint Crystal:Crystal_SMD_5032-2Pin_5.0x3.2mm)
      (datasheet ~)
      (libsource (lib Device) (part Crystal_Small) (description "Two pin crystal, small symbol"))
      (sheetpath (names /) (tstamps /))
      (tstamp 60363623))
    (comp (ref R20)
      (value 33)
      (footprint Resistor_SMD:R_0603_1608Metric)
      (datasheet ~)
      (libsource (lib Device) (part R_US) (description "Resistor, US symbol"))
      (sheetpath (names /) (tstamps /))
      (tstamp 60363629))
    (comp (ref R17)
      (value 33)
      (footprint Resistor_SMD:R_0603_1608Metric)
      (datasheet ~)
      (libsource (lib Device) (part R_US) (description "Resistor, US symbol"))
      (sheetpath (names /) (tstamps /))
      (tstamp 60363637))
    (comp (ref R21)
      (value 33)
      (footprint Resistor_SMD:R_0603_1608Metric)
      (datasheet ~)
      (libsource (lib Device) (part R_US) (description "Resistor, US symbol"))
      (sheetpath (names /) (tstamps /))
      (tstamp 6036363F))
    (comp (ref R18)
      (value 33)
      (footprint Resistor_SMD:R_0603_1608Metric)
      (datasheet ~)
      (libsource (lib Device) (part R_US) (description "Resistor, US symbol"))
      (sheetpath (names /) (tstamps /))
      (tstamp 6036364B))
    (comp (ref C14)
      (value 22pF)
      (footprint Capacitor_SMD:C_0603_1608Metric)
      (datasheet ~)
      (libsource (lib Device) (part C_Small) (description "Unpolarized capacitor, small symbol"))
      (sheetpath (names /) (tstamps /))
      (tstamp 60363666))
    (comp (ref C13)
      (value 22pF)
      (footprint Capacitor_SMD:C_0603_1608Metric)
      (datasheet ~)
      (libsource (lib Device) (part C_Small) (description "Unpolarized capacitor, small symbol"))
      (sheetpath (names /) (tstamps /))
      (tstamp 6036366C))
    (comp (ref R5)
      (value 33)
      (footprint Resistor_SMD:R_0603_1608Metric)
      (datasheet ~)
      (libsource (lib Device) (part R_US) (description "Resistor, US symbol"))
      (sheetpath (names /) (tstamps /))
      (tstamp 60363685))
    (comp (ref R10)
      (value 33)
      (footprint Resistor_SMD:R_0603_1608Metric)
      (datasheet ~)
      (libsource (lib Device) (part R_US) (description "Resistor, US symbol"))
      (sheetpath (names /) (tstamps /))
      (tstamp 6036368D))
    (comp (ref C16)
      (value 10uF)
      (footprint Capacitor_THT:CP_Radial_D5.0mm_P2.00mm)
      (datasheet ~)
      (libsource (lib Device) (part CP1_Small) (description "Polarized capacitor, small US symbol"))
      (sheetpath (names /) (tstamps /))
      (tstamp 603636B3))
    (comp (ref R26)
      (value 100)
      (footprint Resistor_SMD:R_0603_1608Metric)
      (datasheet ~)
      (libsource (lib Device) (part R_US) (description "Resistor, US symbol"))
      (sheetpath (names /) (tstamps /))
      (tstamp 603636CB))
    (comp (ref C8)
      (value 0.1uF)
      (footprint Capacitor_SMD:C_0603_1608Metric)
      (datasheet ~)
      (libsource (lib Device) (part C_Small) (description "Unpolarized capacitor, small symbol"))
      (sheetpath (names /) (tstamps /))
      (tstamp 603636F3))
    (comp (ref U6)
      (value CAT24C128)
      (footprint Package_SO:TSSOP-8_4.4x3mm_P0.65mm)
      (datasheet https://www.onsemi.com/pub/Collateral/CAT24C128-D.PDF)
      (libsource (lib Memory_EEPROM) (part CAT24C128) (description "128 kb CMOS Serial EEPROM, SOIC-8/TSSOP-8/DFN-8"))
      (sheetpath (names /) (tstamps /))
      (tstamp 604E7437))
    (comp (ref U2)
      (value TPS79333-EP)
      (footprint Package_TO_SOT_SMD:SOT-23-5)
      (datasheet http://www.ti.com/lit/ds/symlink/tps79333-ep.pdf)
      (libsource (lib Regulator_Linear) (part TPS79333-EP) (description "200mA UltraLow-Noise, High-Precision, Fast RF, Low Drop-out Voltage Regualtor, Fixed Output 3.3V, SOT-23"))
      (sheetpath (names /) (tstamps /))
      (tstamp 604EEB43))
    (comp (ref R48)
      (value 1K)
      (footprint Resistor_SMD:R_0603_1608Metric)
      (datasheet ~)
      (libsource (lib Device) (part R_US) (description "Resistor, US symbol"))
      (sheetpath (names /) (tstamps /))
      (tstamp 605204B7))
    (comp (ref R49)
      (value 3K9)
      (footprint Resistor_SMD:R_0603_1608Metric)
      (datasheet ~)
      (libsource (lib Device) (part R_US) (description "Resistor, US symbol"))
      (sheetpath (names /) (tstamps /))
      (tstamp 60520A72))
    (comp (ref R50)
      (value 3K9)
      (footprint Resistor_SMD:R_0603_1608Metric)
      (datasheet ~)
      (libsource (lib Device) (part R_US) (description "Resistor, US symbol"))
      (sheetpath (names /) (tstamps /))
      (tstamp 605A8BAB))
    (comp (ref JP6)
      (value "WRITE ENABLE")
      (footprint Connector_PinHeader_2.54mm:PinHeader_1x02_P2.54mm_Vertical)
      (datasheet ~)
      (libsource (lib Device) (part Jumper) (description "Jumper, normally closed"))
      (sheetpath (names /) (tstamps /))
      (tstamp 6061B4BE))
    (comp (ref C12)
      (value 10uF)
      (footprint Capacitor_THT:CP_Radial_D5.0mm_P2.00mm)
      (datasheet ~)
      (libsource (lib Device) (part CP1_Small) (description "Polarized capacitor, small US symbol"))
      (sheetpath (names /) (tstamps /))
      (tstamp 6080AD8A))
    (comp (ref C10)
      (value 0.01uF)
      (footprint Capacitor_SMD:C_0603_1608Metric)
      (datasheet ~)
      (libsource (lib Device) (part C_Small) (description "Unpolarized capacitor, small symbol"))
      (sheetpath (names /) (tstamps /))
      (tstamp 608AAC22))
    (comp (ref C4)
      (value 0.1uF)
      (footprint Capacitor_SMD:C_0603_1608Metric)
      (datasheet ~)
      (libsource (lib Device) (part C_Small) (description "Unpolarized capacitor, small symbol"))
      (sheetpath (names /) (tstamps /))
      (tstamp 608AFE66))
    (comp (ref C7)
      (value 10uF)
      (footprint Capacitor_THT:CP_Radial_D5.0mm_P2.00mm)
      (datasheet ~)
      (libsource (lib Device) (part CP1_Small) (description "Polarized capacitor, small US symbol"))
      (sheetpath (names /) (tstamps /))
      (tstamp 608B0361))
    (comp (ref C1)
      (value 0.1uF)
      (footprint Capacitor_SMD:C_0603_1608Metric)
      (datasheet ~)
      (libsource (lib Device) (part C_Small) (description "Unpolarized capacitor, small symbol"))
      (sheetpath (names /) (tstamps /))
      (tstamp 608EF64C))
    (comp (ref R30)
      (value 100)
      (footprint Resistor_SMD:R_0603_1608Metric)
      (datasheet ~)
      (libsource (lib Device) (part R_US) (description "Resistor, US symbol"))
      (sheetpath (names /) (tstamps /))
      (tstamp 60F17DAC))
    (comp (ref R35)
      (value 10K)
      (footprint Potentiometer_SMD:Potentiometer_Bourns_3314J_Vertical)
      (datasheet ~)
      (libsource (lib Device) (part R_POT_US) (description "Potentiometer, US symbol"))
      (sheetpath (names /) (tstamps /))
      (tstamp 6124F42A))
    (comp (ref C18)
      (value 10uF)
      (footprint Capacitor_THT:CP_Radial_D5.0mm_P2.00mm)
      (datasheet ~)
      (libsource (lib Device) (part CP1_Small) (description "Polarized capacitor, small US symbol"))
      (sheetpath (names /) (tstamps /))
      (tstamp 614DD722))
    (comp (ref R19)
      (value 47K)
      (footprint Resistor_SMD:R_0603_1608Metric)
      (datasheet ~)
      (libsource (lib Device) (part R_US) (description "Resistor, US symbol"))
      (sheetpath (names /) (tstamps /))
      (tstamp 615601D6))
    (comp (ref R24)
      (value 47K)
      (footprint Resistor_SMD:R_0603_1608Metric)
      (datasheet ~)
      (libsource (lib Device) (part R_US) (description "Resistor, US symbol"))
      (sheetpath (names /) (tstamps /))
      (tstamp 61560AD1))
    (comp (ref C20)
      (value 0.33uF)
      (footprint Capacitor_SMD:C_0603_1608Metric)
      (datasheet ~)
      (libsource (lib Device) (part C_Small) (description "Unpolarized capacitor, small symbol"))
      (sheetpath (names /) (tstamps /))
      (tstamp 617FB487))
    (comp (ref R2)
      (value 5K6)
      (footprint Resistor_SMD:R_0603_1608Metric)
      (datasheet ~)
      (libsource (lib Device) (part R_US) (description "Resistor, US symbol"))
      (sheetpath (names /) (tstamps /))
      (tstamp 61F1954C))
    (comp (ref C11)
      (value 1uF)
      (footprint Capacitor_THT:CP_Radial_D5.0mm_P2.00mm)
      (datasheet ~)
      (libsource (lib Device) (part CP1_Small) (description "Polarized capacitor, small US symbol"))
      (sheetpath (names /) (tstamps /))
      (tstamp 61F1CBDD))
    (comp (ref C9)
      (value 220pF)
      (footprint Capacitor_SMD:C_0603_1608Metric)
      (datasheet ~)
      (libsource (lib Device) (part C_Small) (description "Unpolarized capacitor, small symbol"))
      (sheetpath (names /) (tstamps /))
      (tstamp 61F6114D))
    (comp (ref R4)
      (value 5K6)
      (footprint Resistor_SMD:R_0603_1608Metric)
      (datasheet ~)
      (libsource (lib Device) (part R_US) (description "Resistor, US symbol"))
      (sheetpath (names /) (tstamps /))
      (tstamp 61F6809E))
    (comp (ref R27)
      (value 100)
      (footprint Resistor_SMD:R_0603_1608Metric)
      (datasheet ~)
      (libsource (lib Device) (part R_US) (description "Resistor, US symbol"))
      (sheetpath (names /) (tstamps /))
      (tstamp 620463EE))
    (comp (ref U5)
      (value LM321)
      (footprint Package_TO_SOT_SMD:SOT-23-5)
      (datasheet http://www.ti.com/lit/ds/symlink/lm321.pdf)
      (libsource (lib Amplifier_Operational) (part LM321) (description "Low Power Single Operational Amplifier, SOT-23-5"))
      (sheetpath (names /) (tstamps /))
      (tstamp 626E7249))
    (comp (ref C23)
      (value 0.1uF)
      (footprint Capacitor_SMD:C_0603_1608Metric)
      (datasheet ~)
      (libsource (lib Device) (part C_Small) (description "Unpolarized capacitor, small symbol"))
      (sheetpath (names /) (tstamps /))
      (tstamp 63D034BA))
    (comp (ref C24)
      (value 0.1uF)
      (footprint Capacitor_SMD:C_0603_1608Metric)
      (datasheet ~)
      (libsource (lib Device) (part C_Small) (description "Unpolarized capacitor, small symbol"))
      (sheetpath (names /) (tstamps /))
      (tstamp 63D03D6F))
    (comp (ref C25)
      (value 0.1uF)
      (footprint Capacitor_SMD:C_0603_1608Metric)
      (datasheet ~)
      (libsource (lib Device) (part C_Small) (description "Unpolarized capacitor, small symbol"))
      (sheetpath (names /) (tstamps /))
      (tstamp 63D057F8))
    (comp (ref C2)
      (value 22pF)
      (footprint Capacitor_SMD:C_0603_1608Metric)
      (datasheet ~)
      (libsource (lib Device) (part C_Small) (description "Unpolarized capacitor, small symbol"))
      (sheetpath (names /) (tstamps /))
      (tstamp 5FB5FEE6))
    (comp (ref C3)
      (value 22pF)
      (footprint Capacitor_SMD:C_0603_1608Metric)
      (datasheet ~)
      (libsource (lib Device) (part C_Small) (description "Unpolarized capacitor, small symbol"))
      (sheetpath (names /) (tstamps /))
      (tstamp 5FB68C6A))
    (comp (ref Q1)
      (value MMBT3906)
      (footprint Package_TO_SOT_SMD:SOT-23)
      (datasheet https://www.onsemi.com/pub/Collateral/2N3906-D.PDF)
      (libsource (lib Transistor_BJT) (part MMBT3906) (description "-0.2A Ic, -40V Vce, Small Signal PNP Transistor, SOT-23"))
      (sheetpath (names /) (tstamps /))
      (tstamp 5F94D997))
    (comp (ref Q2)
      (value MMBT3904)
      (footprint Package_TO_SOT_SMD:SOT-23)
      (datasheet https://www.onsemi.com/pub/Collateral/2N3903-D.PDF)
      (libsource (lib Transistor_BJT) (part MMBT3904) (description "0.2A Ic, 40V Vce, Small Signal NPN Transistor, SOT-23"))
      (sheetpath (names /) (tstamps /))
      (tstamp 5F983D3B))
    (comp (ref Q4)
      (value MMBT3904)
      (footprint Package_TO_SOT_SMD:SOT-23)
      (datasheet https://www.onsemi.com/pub/Collateral/2N3903-D.PDF)
      (libsource (lib Transistor_BJT) (part MMBT3904) (description "0.2A Ic, 40V Vce, Small Signal NPN Transistor, SOT-23"))
      (sheetpath (names /) (tstamps /))
      (tstamp 5F9A602A))
    (comp (ref Q3)
      (value MMBT3904)
      (footprint Package_TO_SOT_SMD:SOT-23)
      (datasheet https://www.onsemi.com/pub/Collateral/2N3903-D.PDF)
      (libsource (lib Transistor_BJT) (part MMBT3904) (description "0.2A Ic, 40V Vce, Small Signal NPN Transistor, SOT-23"))
      (sheetpath (names /) (tstamps /))
      (tstamp 5F9DE717))
    (comp (ref Q5)
      (value MMBT3904)
      (footprint Package_TO_SOT_SMD:SOT-23)
      (datasheet https://www.onsemi.com/pub/Collateral/2N3903-D.PDF)
      (libsource (lib Transistor_BJT) (part MMBT3904) (description "0.2A Ic, 40V Vce, Small Signal NPN Transistor, SOT-23"))
      (sheetpath (names /) (tstamps /))
      (tstamp 5FA04B9C))
    (comp (ref Q8)
      (value MMBT3904)
      (footprint Package_TO_SOT_SMD:SOT-23)
      (datasheet https://www.onsemi.com/pub/Collateral/2N3903-D.PDF)
      (libsource (lib Transistor_BJT) (part MMBT3904) (description "0.2A Ic, 40V Vce, Small Signal NPN Transistor, SOT-23"))
      (sheetpath (names /) (tstamps /))
      (tstamp 5FA11DB8))
    (comp (ref Q6)
      (value MMBT3904)
      (footprint Package_TO_SOT_SMD:SOT-23)
      (datasheet https://www.onsemi.com/pub/Collateral/2N3903-D.PDF)
      (libsource (lib Transistor_BJT) (part MMBT3904) (description "0.2A Ic, 40V Vce, Small Signal NPN Transistor, SOT-23"))
      (sheetpath (names /) (tstamps /))
      (tstamp 5FA31429))
    (comp (ref Q9)
      (value MMBT3906)
      (footprint Package_TO_SOT_SMD:SOT-23)
      (datasheet https://www.onsemi.com/pub/Collateral/2N3906-D.PDF)
      (libsource (lib Transistor_BJT) (part MMBT3906) (description "-0.2A Ic, -40V Vce, Small Signal PNP Transistor, SOT-23"))
      (sheetpath (names /) (tstamps /))
      (tstamp 5FA45AB0))
    (comp (ref Q7)
      (value MMBT3904)
      (footprint Package_TO_SOT_SMD:SOT-23)
      (datasheet https://www.onsemi.com/pub/Collateral/2N3903-D.PDF)
      (libsource (lib Transistor_BJT) (part MMBT3904) (description "0.2A Ic, 40V Vce, Small Signal NPN Transistor, SOT-23"))
      (sheetpath (names /) (tstamps /))
      (tstamp 5FA72228))
    (comp (ref Q10)
      (value MMBT3906)
      (footprint Package_TO_SOT_SMD:SOT-23)
      (datasheet https://www.onsemi.com/pub/Collateral/2N3906-D.PDF)
      (libsource (lib Transistor_BJT) (part MMBT3906) (description "-0.2A Ic, -40V Vce, Small Signal PNP Transistor, SOT-23"))
      (sheetpath (names /) (tstamps /))
      (tstamp 5FAB3FB5))
    (comp (ref Q11)
      (value MMBT3906)
      (footprint Package_TO_SOT_SMD:SOT-23)
      (datasheet https://www.onsemi.com/pub/Collateral/2N3906-D.PDF)
      (libsource (lib Transistor_BJT) (part MMBT3906) (description "-0.2A Ic, -40V Vce, Small Signal PNP Transistor, SOT-23"))
      (sheetpath (names /) (tstamps /))
      (tstamp 5FAC0557))
    (comp (ref R51)
      (value 10K)
      (footprint Potentiometer_SMD:Potentiometer_Bourns_3314J_Vertical)
      (datasheet ~)
      (libsource (lib Device) (part R_POT_US) (description "Potentiometer, US symbol"))
      (sheetpath (names /) (tstamps /))
      (tstamp 600B1D21))
    (comp (ref C5)
      (value 10uF)
      (footprint Capacitor_THT:CP_Radial_D5.0mm_P2.00mm)
      (datasheet ~)
      (libsource (lib Device) (part CP1_Small) (description "Polarized capacitor, small US symbol"))
      (sheetpath (names /) (tstamps /))
      (tstamp 5FA5BD75))
    (comp (ref U4)
      (value WM8731_SSOP_28)
      (footprint Package_SO:SSOP-28_5.3x10.2mm_P0.65mm)
      (datasheet https://www.cirrus.com/products/wm8731/)
      (libsource (lib Local_Symbols) (part WM8731_SSOP_28) (description "Portable Internet Audio CODEC with Headphone Driver and Programmable Sample Rates"))
      (sheetpath (names /) (tstamps /))
      (tstamp 5F9BB2B7)))
  (libparts
    (libpart (lib 74xx) (part 74LS08)
      (description "Quad And2")
      (docs http://www.ti.com/lit/gpn/sn74LS08)
      (footprints
        (fp DIP*W7.62mm*))
      (fields
        (field (name Reference) U)
        (field (name Value) 74LS08))
      (pins
        (pin (num 1) (name ~) (type input))
        (pin (num 2) (name ~) (type input))
        (pin (num 3) (name ~) (type output))
        (pin (num 4) (name ~) (type input))
        (pin (num 5) (name ~) (type input))
        (pin (num 6) (name ~) (type output))
        (pin (num 7) (name GND) (type power_in))
        (pin (num 8) (name ~) (type output))
        (pin (num 9) (name ~) (type input))
        (pin (num 10) (name ~) (type input))
        (pin (num 11) (name ~) (type output))
        (pin (num 12) (name ~) (type input))
        (pin (num 13) (name ~) (type input))
        (pin (num 14) (name VCC) (type power_in))))
    (libpart (lib Amplifier_Operational) (part LM321)
      (aliases
        (alias MCP6L01Ux-xOT))
      (description "Low Power Single Operational Amplifier, SOT-23-5")
      (docs http://www.ti.com/lit/ds/symlink/lm321.pdf)
      (footprints
        (fp SOT?23*))
      (fields
        (field (name Reference) U)
        (field (name Value) LM321)
        (field (name Footprint) Package_TO_SOT_SMD:SOT-23-5))
      (pins
        (pin (num 1) (name +) (type input))
        (pin (num 2) (name V-) (type power_in))
        (pin (num 3) (name -) (type input))
        (pin (num 4) (name ~) (type output))
        (pin (num 5) (name V+) (type power_in))))
    (libpart (lib Connector) (part DB9_Female)
      (description "9-pin female D-SUB connector")
      (docs " ~")
      (footprints
        (fp DSUB*Female*))
      (fields
        (field (name Reference) J)
        (field (name Value) DB9_Female))
      (pins
        (pin (num 1) (name 1) (type passive))
        (pin (num 2) (name 2) (type passive))
        (pin (num 3) (name 3) (type passive))
        (pin (num 4) (name 4) (type passive))
        (pin (num 5) (name 5) (type passive))
        (pin (num 6) (name 6) (type passive))
        (pin (num 7) (name 7) (type passive))
        (pin (num 8) (name 8) (type passive))
        (pin (num 9) (name 9) (type passive))))
    (libpart (lib Connector_Generic) (part Conn_02x20_Odd_Even)
      (description "Generic connector, double row, 02x20, odd/even pin numbering scheme (row 1 odd numbers, row 2 even numbers), script generated (kicad-library-utils/schlib/autogen/connector/)")
      (docs ~)
      (footprints
        (fp Connector*:*_2x??_*))
      (fields
        (field (name Reference) J)
        (field (name Value) Conn_02x20_Odd_Even))
      (pins
        (pin (num 1) (name Pin_1) (type passive))
        (pin (num 2) (name Pin_2) (type passive))
        (pin (num 3) (name Pin_3) (type passive))
        (pin (num 4) (name Pin_4) (type passive))
        (pin (num 5) (name Pin_5) (type passive))
        (pin (num 6) (name Pin_6) (type passive))
        (pin (num 7) (name Pin_7) (type passive))
        (pin (num 8) (name Pin_8) (type passive))
        (pin (num 9) (name Pin_9) (type passive))
        (pin (num 10) (name Pin_10) (type passive))
        (pin (num 11) (name Pin_11) (type passive))
        (pin (num 12) (name Pin_12) (type passive))
        (pin (num 13) (name Pin_13) (type passive))
        (pin (num 14) (name Pin_14) (type passive))
        (pin (num 15) (name Pin_15) (type passive))
        (pin (num 16) (name Pin_16) (type passive))
        (pin (num 17) (name Pin_17) (type passive))
        (pin (num 18) (name Pin_18) (type passive))
        (pin (num 19) (name Pin_19) (type passive))
        (pin (num 20) (name Pin_20) (type passive))
        (pin (num 21) (name Pin_21) (type passive))
        (pin (num 22) (name Pin_22) (type passive))
        (pin (num 23) (name Pin_23) (type passive))
        (pin (num 24) (name Pin_24) (type passive))
        (pin (num 25) (name Pin_25) (type passive))
        (pin (num 26) (name Pin_26) (type passive))
        (pin (num 27) (name Pin_27) (type passive))
        (pin (num 28) (name Pin_28) (type passive))
        (pin (num 29) (name Pin_29) (type passive))
        (pin (num 30) (name Pin_30) (type passive))
        (pin (num 31) (name Pin_31) (type passive))
        (pin (num 32) (name Pin_32) (type passive))
        (pin (num 33) (name Pin_33) (type passive))
        (pin (num 34) (name Pin_34) (type passive))
        (pin (num 35) (name Pin_35) (type passive))
        (pin (num 36) (name Pin_36) (type passive))
        (pin (num 37) (name Pin_37) (type passive))
        (pin (num 38) (name Pin_38) (type passive))
        (pin (num 39) (name Pin_39) (type passive))
        (pin (num 40) (name Pin_40) (type passive))))
    (libpart (lib Device) (part CP1_Small)
      (description "Polarized capacitor, small US symbol")
      (docs ~)
      (footprints
        (fp CP_*))
      (fields
        (field (name Reference) C)
        (field (name Value) CP1_Small))
      (pins
        (pin (num 1) (name ~) (type passive))
        (pin (num 2) (name ~) (type passive))))
    (libpart (lib Device) (part C_Small)
      (description "Unpolarized capacitor, small symbol")
      (docs ~)
      (footprints
        (fp C_*))
      (fields
        (field (name Reference) C)
        (field (name Value) C_Small))
      (pins
        (pin (num 1) (name ~) (type passive))
        (pin (num 2) (name ~) (type passive))))
    (libpart (lib Device) (part Crystal_Small)
      (description "Two pin crystal, small symbol")
      (docs ~)
      (footprints
        (fp Crystal*))
      (fields
        (field (name Reference) Y)
        (field (name Value) Crystal_Small))
      (pins
        (pin (num 1) (name 1) (type passive))
        (pin (num 2) (name 2) (type passive))))
    (libpart (lib Device) (part Jumper)
      (description "Jumper, normally closed")
      (docs ~)
      (footprints
        (fp SolderJumper*)
        (fp Jumper*)
        (fp TestPoint*2Pads*)
        (fp TestPoint*Bridge*))
      (fields
        (field (name Reference) JP)
        (field (name Value) Jumper))
      (pins
        (pin (num 1) (name 1) (type passive))
        (pin (num 2) (name 2) (type passive))))
    (libpart (lib Device) (part LED)
      (description "Light emitting diode")
      (docs ~)
      (footprints
        (fp LED*)
        (fp LED_SMD:*)
        (fp LED_THT:*))
      (fields
        (field (name Reference) D)
        (field (name Value) LED))
      (pins
        (pin (num 1) (name K) (type passive))
        (pin (num 2) (name A) (type passive))))
    (libpart (lib Device) (part R_POT_US)
      (description "Potentiometer, US symbol")
      (docs ~)
      (footprints
        (fp Potentiometer*))
      (fields
        (field (name Reference) RV)
        (field (name Value) R_POT_US))
      (pins
        (pin (num 1) (name 1) (type passive))
        (pin (num 2) (name 2) (type passive))
        (pin (num 3) (name 3) (type passive))))
    (libpart (lib Device) (part R_US)
      (description "Resistor, US symbol")
      (docs ~)
      (footprints
        (fp R_*))
      (fields
        (field (name Reference) R)
        (field (name Value) R_US))
      (pins
        (pin (num 1) (name ~) (type passive))
        (pin (num 2) (name ~) (type passive))))
    (libpart (lib Diode) (part 1N4148)
      (aliases
        (alias 1N4448)
        (alias 1N4149)
        (alias 1N4151)
        (alias 1N914)
        (alias BA243)
        (alias BA244)
        (alias BA282)
        (alias BA283)
        (alias BAV17)
        (alias BAV18)
        (alias BAV19)
        (alias BAV20)
        (alias BAV21)
        (alias BAW75)
        (alias BAW76)
        (alias BAY93))
      (description "100V 0.15A standard switching diode, DO-35")
      (docs https://assets.nexperia.com/documents/data-sheet/1N4148_1N4448.pdf)
      (footprints
        (fp D*DO?35*))
      (fields
        (field (name Reference) D)
        (field (name Value) 1N4148)
        (field (name Footprint) Diode_THT:D_DO-35_SOD27_P7.62mm_Horizontal))
      (pins
        (pin (num 1) (name K) (type passive))
        (pin (num 2) (name A) (type passive))))
    (libpart (lib Interface_Telecom) (part HT9170D)
      (description "DTMF receiver with 4 bit output, SOIC-18")
      (docs http://www.holtek.com/documents/10179/116711/9170v111.pdf)
      (footprints
        (fp SOIC*7.5x11.6mm*P1.27mm*))
      (fields
        (field (name Reference) U)
        (field (name Value) HT9170D)
        (field (name Footprint) Package_SO:SOIC-18W_7.5x11.6mm_P1.27mm))
      (pins
        (pin (num 1) (name VP) (type input))
        (pin (num 2) (name VN) (type input))
        (pin (num 3) (name GS) (type output))
        (pin (num 4) (name VREF) (type power_out))
        (pin (num 5) (name INH) (type input))
        (pin (num 6) (name PWDN) (type input))
        (pin (num 7) (name X1) (type input))
        (pin (num 8) (name X2) (type output))
        (pin (num 9) (name VSS) (type power_in))
        (pin (num 10) (name OE) (type input))
        (pin (num 11) (name D0) (type 3state))
        (pin (num 12) (name D1) (type 3state))
        (pin (num 13) (name D2) (type 3state))
        (pin (num 14) (name D3) (type 3state))
        (pin (num 15) (name DV) (type output))
        (pin (num 16) (name EST) (type output))
        (pin (num 17) (name RT/GT) (type BiDi))
        (pin (num 18) (name VDD) (type power_in))))
    (libpart (lib Jumper) (part Jumper_3_Open)
      (description "Jumper, 3-pole, both open")
      (docs ~)
      (footprints
        (fp Jumper*)
        (fp TestPoint*3Pads*)
        (fp TestPoint*Bridge*))
      (fields
        (field (name Reference) JP)
        (field (name Value) Jumper_3_Open))
      (pins
        (pin (num 1) (name A) (type passive))
        (pin (num 2) (name C) (type input))
        (pin (num 3) (name B) (type passive))))
    (libpart (lib Local_Symbols) (part WM8731_SSOP_28)
      (description "Portable Internet Audio CODEC with Headphone Driver and Programmable Sample Rates")
      (docs https://www.cirrus.com/products/wm8731/)
      (fields
        (field (name Reference) U?)
        (field (name Value) WM8731_SSOP_28)
        (field (name Footprint) Package_SO:SSOP-28_5.3x10.2mm_P0.65mm))
      (pins
        (pin (num 1) (name DBVDD) (type power_in))
        (pin (num 2) (name CLKOUT) (type output))
        (pin (num 3) (name BCLK) (type BiDi))
        (pin (num 4) (name DACDAT) (type input))
        (pin (num 5) (name DACLRC) (type BiDi))
        (pin (num 6) (name ADCDAT) (type output))
        (pin (num 7) (name ADCLRC) (type BiDi))
        (pin (num 8) (name HPVDD) (type power_in))
        (pin (num 9) (name LHPOUT) (type output))
        (pin (num 10) (name RHPOUT) (type output))
        (pin (num 11) (name HPGND) (type power_in))
        (pin (num 12) (name LOUT) (type output))
        (pin (num 13) (name ROUT) (type output))
        (pin (num 14) (name AVDD) (type power_in))
        (pin (num 15) (name AGND) (type power_in))
        (pin (num 16) (name VMID) (type output))
        (pin (num 17) (name MICBIAS) (type output))
        (pin (num 18) (name MICIN) (type input))
        (pin (num 19) (name RLINEIN) (type input))
        (pin (num 20) (name LLINEIN) (type input))
        (pin (num 21) (name MODE) (type input))
        (pin (num 22) (name CSB) (type input))
        (pin (num 23) (name SDIN) (type BiDi))
        (pin (num 24) (name SCLK) (type input))
        (pin (num 25) (name XTI/MCLK) (type input))
        (pin (num 26) (name XTO) (type output))
        (pin (num 27) (name DCVDD) (type power_in))
        (pin (num 28) (name DGND) (type power_in))))
    (libpart (lib Memory_EEPROM) (part 24LC16)
      (aliases
        (alias 24LC02)
        (alias 24LC00)
        (alias 24LC04)
        (alias 24LC08)
        (alias 24LC01)
        (alias 24LC512)
        (alias 24LC64)
        (alias 24LC1025)
        (alias 24LC32)
        (alias 24LC256)
        (alias 24LC128)
        (alias CAT24C256)
        (alias CAT24C128))
      (description "I2C Serial EEPROM, 16Kb, DIP-8/SOIC-8/TSSOP-8/DFN-8")
      (docs http://ww1.microchip.com/downloads/en/DeviceDoc/21703d.pdf)
      (footprints
        (fp DIP*W7.62mm*)
        (fp SOIC*3.9x4.9mm*)
        (fp TSSOP*4.4x3mm*P0.65mm*)
        (fp DFN*3x2mm*P0.5mm*))
      (fields
        (field (name Reference) U)
        (field (name Value) 24LC16))
      (pins
        (pin (num 1) (name A0) (type input))
        (pin (num 2) (name A1) (type input))
        (pin (num 3) (name A2) (type input))
        (pin (num 4) (name GND) (type power_in))
        (pin (num 5) (name SDA) (type BiDi))
        (pin (num 6) (name SCL) (type input))
        (pin (num 7) (name WP) (type input))
        (pin (num 8) (name VCC) (type power_in))))
    (libpart (lib Regulator_Linear) (part TPS79318-EP)
      (aliases
        (alias TPS79325-EP)
        (alias TPS79328-EP)
        (alias TPS793285-EP)
        (alias TPS79330-EP)
        (alias TPS79333-EP)
        (alias TPS793475-EP))
      (description "200mA UltraLow-Noise, High-Precision, Fast RF, Low Drop-out Voltage Regualtor, Fixed Output 1.8V, SOT-23")
      (docs http://www.ti.com/lit/ds/symlink/tps79333-ep.pdf)
      (footprints
        (fp SOT?23*))
      (fields
        (field (name Reference) U)
        (field (name Value) TPS79318-EP)
        (field (name Footprint) Package_TO_SOT_SMD:SOT-23-5))
      (pins
        (pin (num 1) (name IN) (type power_in))
        (pin (num 2) (name GND) (type power_in))
        (pin (num 3) (name EN) (type input))
        (pin (num 4) (name BP) (type BiDi))
        (pin (num 5) (name OUT) (type power_out))))
    (libpart (lib Transistor_BJT) (part BC807)
      (aliases
        (alias BC808)
        (alias BC856)
        (alias BC857)
        (alias BC858)
        (alias BC859)
        (alias BC860)
        (alias MMBT3906))
      (description "0.8A Ic, 45V Vce, PNP Transistor, SOT-23")
      (docs https://www.onsemi.com/pub/Collateral/BC808-D.pdf)
      (footprints
        (fp SOT?23*))
      (fields
        (field (name Reference) Q)
        (field (name Value) BC807)
        (field (name Footprint) Package_TO_SOT_SMD:SOT-23))
      (pins
        (pin (num 1) (name B) (type input))
        (pin (num 2) (name E) (type passive))
        (pin (num 3) (name C) (type passive))))
    (libpart (lib Transistor_BJT) (part BC817)
      (aliases
        (alias BC818)
        (alias BC846)
        (alias BC847)
        (alias BC848)
        (alias BC849)
        (alias BC850)
        (alias MMBT3904)
        (alias MMBT5550L)
        (alias MMBT5551L))
      (description "0.8A Ic, 45V Vce, NPN Transistor, SOT-23")
      (docs https://www.onsemi.com/pub/Collateral/BC818-D.pdf)
      (footprints
        (fp SOT?23*))
      (fields
        (field (name Reference) Q)
        (field (name Value) BC817)
        (field (name Footprint) Package_TO_SOT_SMD:SOT-23))
      (pins
        (pin (num 1) (name B) (type input))
        (pin (num 2) (name E) (type passive))
        (pin (num 3) (name C) (type passive)))))
  (libraries
    (library (logical 74xx)
      (uri /usr/share/kicad/library/74xx.lib))
    (library (logical Amplifier_Operational)
      (uri /usr/share/kicad/library/Amplifier_Operational.lib))
    (library (logical Connector)
      (uri /usr/share/kicad/library/Connector.lib))
    (library (logical Connector_Generic)
      (uri /usr/share/kicad/library/Connector_Generic.lib))
    (library (logical Device)
      (uri /usr/share/kicad/library/Device.lib))
    (library (logical Diode)
      (uri /usr/share/kicad/library/Diode.lib))
    (library (logical Interface_Telecom)
      (uri /usr/share/kicad/library/Interface_Telecom.lib))
    (library (logical Jumper)
      (uri /usr/share/kicad/library/Jumper.lib))
    (library (logical Local_Symbols)
      (uri /home/dave/kicad/Local_Symbols.lib))
    (library (logical Memory_EEPROM)
      (uri /usr/share/kicad/library/Memory_EEPROM.lib))
    (library (logical Regulator_Linear)
      (uri /usr/share/kicad/library/Regulator_Linear.lib))
    (library (logical Transistor_BJT)
      (uri /usr/share/kicad/library/Transistor_BJT.lib)))
  (nets
    (net (code 1) (name "Net-(C16-Pad1)")
      (node (ref U4) (pin 13))
      (node (ref C16) (pin 1)))
    (net (code 2) (name "Net-(C18-Pad1)")
      (node (ref C18) (pin 1))
      (node (ref U4) (pin 12)))
    (net (code 3) (name "Net-(C16-Pad2)")
      (node (ref R24) (pin 2))
      (node (ref C16) (pin 2))
      (node (ref R26) (pin 2)))
    (net (code 4) (name ID_SD)
      (node (ref R50) (pin 2))
      (node (ref CONN2) (pin 27))
      (node (ref U6) (pin 5)))
    (net (code 5) (name "Net-(R18-Pad1)")
      (node (ref U4) (pin 4))
      (node (ref R18) (pin 1)))
    (net (code 6) (name "Net-(C10-Pad1)")
      (node (ref C10) (pin 1))
      (node (ref U2) (pin 4)))
    (net (code 7) (name "Net-(C20-Pad1)")
      (node (ref R35) (pin 3))
      (node (ref C20) (pin 1)))
    (net (code 8) (name "Net-(U4-Pad17)")
      (node (ref U4) (pin 17)))
    (net (code 9) (name "Net-(U4-Pad18)")
      (node (ref U4) (pin 18)))
    (net (code 10) (name "Net-(C18-Pad2)")
      (node (ref R19) (pin 2))
      (node (ref R27) (pin 2))
      (node (ref C18) (pin 2)))
    (net (code 11) (name "Net-(R26-Pad1)")
      (node (ref R27) (pin 1))
      (node (ref R30) (pin 2))
      (node (ref U5) (pin 3))
      (node (ref R26) (pin 1)))
    (net (code 12) (name "Net-(C20-Pad2)")
      (node (ref U5) (pin 4))
      (node (ref C20) (pin 2))
      (node (ref R30) (pin 1)))
    (net (code 13) (name AUDIO_OUT)
      (node (ref R35) (pin 2))
      (node (ref CONN1) (pin 9)))
    (net (code 14) (name "Net-(R17-Pad1)")
      (node (ref U4) (pin 3))
      (node (ref R17) (pin 1)))
    (net (code 15) (name "Net-(R20-Pad1)")
      (node (ref U4) (pin 6))
      (node (ref R20) (pin 1)))
    (net (code 16) (name "Net-(C11-Pad2)")
      (node (ref C9) (pin 1))
      (node (ref R2) (pin 1))
      (node (ref C11) (pin 2))
      (node (ref R4) (pin 2)))
    (net (code 17) (name "Net-(C11-Pad1)")
      (node (ref C11) (pin 1))
      (node (ref U4) (pin 20))
      (node (ref U4) (pin 19)))
    (net (code 18) (name ID_SC)
      (node (ref U6) (pin 6))
      (node (ref R49) (pin 2))
      (node (ref CONN2) (pin 28)))
    (net (code 19) (name SCL)
      (node (ref CONN2) (pin 5))
      (node (ref R10) (pin 1)))
    (net (code 20) (name PCM_CLK)
      (node (ref R17) (pin 2))
      (node (ref CONN2) (pin 12)))
    (net (code 21) (name PCM_DOUT)
      (node (ref R18) (pin 2))
      (node (ref CONN2) (pin 40)))
    (net (code 22) (name SDA)
      (node (ref R5) (pin 1))
      (node (ref CONN2) (pin 3)))
    (net (code 23) (name "Net-(R5-Pad2)")
      (node (ref U4) (pin 23))
      (node (ref R5) (pin 2)))
    (net (code 24) (name "Net-(R10-Pad2)")
      (node (ref U4) (pin 24))
      (node (ref R10) (pin 2)))
    (net (code 25) (name +5V)
      (node (ref C25) (pin 1))
      (node (ref C12) (pin 1))
      (node (ref CONN2) (pin 4))
      (node (ref CONN2) (pin 2))
      (node (ref U2) (pin 1))
      (node (ref U2) (pin 3)))
    (net (code 26) (name "Net-(JP6-Pad1)")
      (node (ref JP6) (pin 1))
      (node (ref R48) (pin 1))
      (node (ref U6) (pin 7)))
    (net (code 27) (name "Net-(JP1-Pad1)")
      (node (ref Q1) (pin 3))
      (node (ref JP1) (pin 1)))
    (net (code 28) (name "Net-(Q2-Pad1)")
      (node (ref Q2) (pin 1))
      (node (ref R13) (pin 1)))
    (net (code 29) (name "Net-(Q3-Pad3)")
      (node (ref Q3) (pin 3))
      (node (ref R14) (pin 2)))
    (net (code 30) (name "Net-(Q5-Pad1)")
      (node (ref Q5) (pin 1))
      (node (ref R32) (pin 1)))
    (net (code 31) (name "Net-(JP2-Pad1)")
      (node (ref JP2) (pin 1))
      (node (ref Q5) (pin 3))
      (node (ref R34) (pin 2)))
    (net (code 32) (name "Net-(Q6-Pad1)")
      (node (ref R36) (pin 1))
      (node (ref Q6) (pin 1)))
    (net (code 33) (name "Net-(D3-Pad1)")
      (node (ref D3) (pin 1))
      (node (ref Q6) (pin 3))
      (node (ref R39) (pin 2))
      (node (ref R42) (pin 2)))
    (net (code 34) (name "Net-(Q9-Pad1)")
      (node (ref R45) (pin 2))
      (node (ref R42) (pin 1))
      (node (ref Q9) (pin 1)))
    (net (code 35) (name "Net-(JP3-Pad1)")
      (node (ref Q9) (pin 3))
      (node (ref JP3) (pin 1)))
    (net (code 36) (name "Net-(Q10-Pad1)")
      (node (ref Q10) (pin 1))
      (node (ref R46) (pin 2))
      (node (ref R43) (pin 1)))
    (net (code 37) (name "Net-(JP4-Pad1)")
      (node (ref Q10) (pin 3))
      (node (ref JP4) (pin 1)))
    (net (code 38) (name "Net-(Q11-Pad1)")
      (node (ref Q11) (pin 1))
      (node (ref R44) (pin 1))
      (node (ref R47) (pin 2)))
    (net (code 39) (name /BCM16)
      (node (ref CONN2) (pin 36))
      (node (ref R36) (pin 2)))
    (net (code 40) (name /BCM5)
      (node (ref U3) (pin 15))
      (node (ref CONN2) (pin 29)))
    (net (code 41) (name /BCM23)
      (node (ref R37) (pin 2))
      (node (ref CONN2) (pin 16)))
    (net (code 42) (name "Net-(Q7-Pad1)")
      (node (ref Q7) (pin 1))
      (node (ref R38) (pin 1)))
    (net (code 43) (name "Net-(C2-Pad1)")
      (node (ref C2) (pin 1))
      (node (ref Y1) (pin 2))
      (node (ref U3) (pin 7)))
    (net (code 44) (name "Net-(C3-Pad1)")
      (node (ref U3) (pin 8))
      (node (ref C3) (pin 1))
      (node (ref Y1) (pin 1)))
    (net (code 45) (name "Net-(U4-Pad10)")
      (node (ref U4) (pin 10)))
    (net (code 46) (name "Net-(C5-Pad1)")
      (node (ref C5) (pin 1))
      (node (ref C8) (pin 1))
      (node (ref U4) (pin 16)))
    (net (code 47) (name "Net-(U4-Pad2)")
      (node (ref U4) (pin 2)))
    (net (code 48) (name "Net-(C14-Pad1)")
      (node (ref Y2) (pin 2))
      (node (ref C14) (pin 1))
      (node (ref U4) (pin 26)))
    (net (code 49) (name GND)
      (node (ref U3) (pin 6))
      (node (ref U3) (pin 5))
      (node (ref CONN2) (pin 20))
      (node (ref CONN2) (pin 9))
      (node (ref CONN2) (pin 6))
      (node (ref CONN2) (pin 39))
      (node (ref CONN2) (pin 30))
      (node (ref CONN2) (pin 25))
      (node (ref CONN2) (pin 34))
      (node (ref U1) (pin 7))
      (node (ref C14) (pin 2))
      (node (ref C13) (pin 2))
      (node (ref R25) (pin 1))
      (node (ref CONN1) (pin 6))
      (node (ref U3) (pin 9))
      (node (ref C23) (pin 2))
      (node (ref C25) (pin 2))
      (node (ref CONN2) (pin 14))
      (node (ref C24) (pin 2))
      (node (ref C21) (pin 2))
      (node (ref C22) (pin 2))
      (node (ref R3) (pin 1))
      (node (ref R16) (pin 2))
      (node (ref U6) (pin 4))
      (node (ref U2) (pin 2))
      (node (ref U6) (pin 3))
      (node (ref C8) (pin 2))
      (node (ref U4) (pin 28))
      (node (ref C9) (pin 2))
      (node (ref R4) (pin 1))
      (node (ref C1) (pin 2))
      (node (ref U4) (pin 22))
      (node (ref U4) (pin 15))
      (node (ref U4) (pin 11))
      (node (ref U6) (pin 1))
      (node (ref U6) (pin 2))
      (node (ref JP6) (pin 2))
      (node (ref Q8) (pin 2))
      (node (ref Q2) (pin 2))
      (node (ref Q7) (pin 2))
      (node (ref Q4) (pin 2))
      (node (ref Q6) (pin 2))
      (node (ref Q3) (pin 2))
      (node (ref Q5) (pin 2))
      (node (ref C3) (pin 2))
      (node (ref C2) (pin 2))
      (node (ref C12) (pin 2))
      (node (ref U4) (pin 21))
      (node (ref C10) (pin 2))
      (node (ref C4) (pin 2))
      (node (ref C7) (pin 2))
      (node (ref R24) (pin 1))
      (node (ref R35) (pin 1))
      (node (ref C5) (pin 2))
      (node (ref U5) (pin 2))
      (node (ref R19) (pin 1))
      (node (ref R51) (pin 1))
      (node (ref U5) (pin 1)))
    (net (code 50) (name "Net-(R21-Pad1)")
      (node (ref U4) (pin 5))
      (node (ref U4) (pin 7))
      (node (ref R21) (pin 1)))
    (net (code 51) (name AVDD)
      (node (ref C1) (pin 1))
      (node (ref U5) (pin 5))
      (node (ref C7) (pin 1))
      (node (ref C4) (pin 1))
      (node (ref U4) (pin 8))
      (node (ref U4) (pin 14))
      (node (ref U2) (pin 5)))
    (net (code 52) (name "Net-(U4-Pad9)")
      (node (ref U4) (pin 9)))
    (net (code 53) (name "Net-(JP5-Pad1)")
      (node (ref Q11) (pin 3))
      (node (ref JP5) (pin 1)))
    (net (code 54) (name "Net-(R2-Pad2)")
      (node (ref R2) (pin 2))
      (node (ref R51) (pin 2)))
    (net (code 55) (name AUDIO_IN)
      (node (ref CONN1) (pin 8))
      (node (ref R51) (pin 3))
      (node (ref R3) (pin 3)))
    (net (code 57) (name "/BCM4_(GPCLK0)")
      (node (ref U1) (pin 3))
      (node (ref CONN2) (pin 7)))
    (net (code 58) (name /BCM22)
      (node (ref CONN2) (pin 15))
      (node (ref R38) (pin 2)))
    (net (code 59) (name "/BCM9_(MISO)")
      (node (ref CONN2) (pin 21))
      (node (ref U1) (pin 8)))
    (net (code 60) (name "Net-(JP2-Pad3)")
      (node (ref JP2) (pin 3))
      (node (ref Q4) (pin 3))
      (node (ref R32) (pin 2))
      (node (ref R28) (pin 2)))
    (net (code 61) (name +3V3)
      (node (ref R50) (pin 1))
      (node (ref LED7) (pin 2))
      (node (ref LED4) (pin 2))
      (node (ref U4) (pin 27))
      (node (ref LED6) (pin 2))
      (node (ref Q10) (pin 2))
      (node (ref LED5) (pin 2))
      (node (ref U3) (pin 18))
      (node (ref R49) (pin 1))
      (node (ref D1) (pin 1))
      (node (ref R46) (pin 1))
      (node (ref Q11) (pin 2))
      (node (ref U3) (pin 10))
      (node (ref R48) (pin 2))
      (node (ref C15) (pin 1))
      (node (ref LED3) (pin 2))
      (node (ref C24) (pin 1))
      (node (ref R8) (pin 1))
      (node (ref R47) (pin 1))
      (node (ref CONN2) (pin 1))
      (node (ref C21) (pin 1))
      (node (ref C22) (pin 1))
      (node (ref Q9) (pin 2))
      (node (ref C23) (pin 1))
      (node (ref R28) (pin 1))
      (node (ref CONN2) (pin 17))
      (node (ref LED2) (pin 2))
      (node (ref LED1) (pin 2))
      (node (ref R34) (pin 1))
      (node (ref U6) (pin 8))
      (node (ref U1) (pin 14))
      (node (ref Q1) (pin 2))
      (node (ref U4) (pin 1))
      (node (ref R45) (pin 1)))
    (net (code 62) (name /BCM24)
      (node (ref U1) (pin 11))
      (node (ref CONN2) (pin 18)))
    (net (code 63) (name "Net-(Q3-Pad1)")
      (node (ref R11) (pin 1))
      (node (ref Q3) (pin 1)))
    (net (code 64) (name /BCM27)
      (node (ref U1) (pin 12))
      (node (ref U1) (pin 10))
      (node (ref R11) (pin 2))
      (node (ref U1) (pin 2))
      (node (ref U1) (pin 4))
      (node (ref CONN2) (pin 13)))
    (net (code 65) (name "Net-(D1-Pad2)")
      (node (ref D1) (pin 2))
      (node (ref R7) (pin 2)))
    (net (code 66) (name "Net-(C6-Pad1)")
      (node (ref R3) (pin 2))
      (node (ref C6) (pin 1)))
    (net (code 67) (name "Net-(R6-Pad1)")
      (node (ref R6) (pin 1))
      (node (ref U3) (pin 16)))
    (net (code 68) (name "Net-(C15-Pad2)")
      (node (ref R6) (pin 2))
      (node (ref U3) (pin 17))
      (node (ref R7) (pin 1))
      (node (ref C15) (pin 2)))
    (net (code 69) (name "Net-(CONN1-Pad1)")
      (node (ref CONN1) (pin 1)))
    (net (code 70) (name "Net-(D5-Pad1)")
      (node (ref D5) (pin 1))
      (node (ref Q8) (pin 3))
      (node (ref R41) (pin 2))
      (node (ref R44) (pin 2)))
    (net (code 71) (name "Net-(LED7-Pad1)")
      (node (ref LED7) (pin 1))
      (node (ref R41) (pin 1)))
    (net (code 72) (name AUX2)
      (node (ref JP4) (pin 2))
      (node (ref CONN1) (pin 4)))
    (net (code 73) (name AUX3)
      (node (ref JP5) (pin 2))
      (node (ref CONN1) (pin 5)))
    (net (code 74) (name /BCM17)
      (node (ref CONN2) (pin 11))
      (node (ref R13) (pin 2)))
    (net (code 75) (name "/BCM10_(MOSI)")
      (node (ref CONN2) (pin 19))
      (node (ref JP2) (pin 2))
      (node (ref R31) (pin 2)))
    (net (code 76) (name /BCM25)
      (node (ref U1) (pin 6))
      (node (ref CONN2) (pin 22)))
    (net (code 77) (name "Net-(LED6-Pad1)")
      (node (ref R40) (pin 1))
      (node (ref LED6) (pin 1)))
    (net (code 78) (name "Net-(LED5-Pad1)")
      (node (ref R39) (pin 1))
      (node (ref LED5) (pin 1)))
    (net (code 79) (name "Net-(D4-Pad2)")
      (node (ref JP4) (pin 3))
      (node (ref D4) (pin 2)))
    (net (code 80) (name "Net-(D5-Pad2)")
      (node (ref D5) (pin 2))
      (node (ref JP5) (pin 3)))
    (net (code 81) (name "Net-(Q4-Pad1)")
      (node (ref R23) (pin 1))
      (node (ref R25) (pin 2))
      (node (ref Q4) (pin 1)))
    (net (code 82) (name "Net-(LED4-Pad1)")
      (node (ref LED4) (pin 1))
      (node (ref R31) (pin 1)))
    (net (code 83) (name "Net-(Q8-Pad1)")
      (node (ref R37) (pin 1))
      (node (ref Q8) (pin 1)))
    (net (code 84) (name "Net-(LED1-Pad1)")
      (node (ref R16) (pin 1))
      (node (ref LED1) (pin 1)))
    (net (code 85) (name "Net-(LED2-Pad1)")
      (node (ref R14) (pin 1))
      (node (ref LED2) (pin 1)))
    (net (code 86) (name "Net-(Q1-Pad1)")
      (node (ref R8) (pin 2))
      (node (ref R9) (pin 1))
      (node (ref Q1) (pin 1)))
    (net (code 87) (name "Net-(D2-Pad1)")
      (node (ref Q2) (pin 3))
      (node (ref D2) (pin 1))
      (node (ref R9) (pin 2))
      (node (ref R12) (pin 2)))
    (net (code 88) (name "Net-(LED3-Pad1)")
      (node (ref LED3) (pin 1))
      (node (ref R12) (pin 1)))
    (net (code 89) (name "Net-(D4-Pad1)")
      (node (ref R43) (pin 2))
      (node (ref Q7) (pin 3))
      (node (ref D4) (pin 1))
      (node (ref R40) (pin 2)))
    (net (code 90) (name PTT)
      (node (ref JP1) (pin 2))
      (node (ref CONN1) (pin 2)))
    (net (code 91) (name "Net-(D2-Pad2)")
      (node (ref JP1) (pin 3))
      (node (ref D2) (pin 2)))
    (net (code 92) (name COS)
      (node (ref CONN1) (pin 7))
      (node (ref R23) (pin 2)))
    (net (code 93) (name AUX1)
      (node (ref JP3) (pin 2))
      (node (ref CONN1) (pin 3)))
    (net (code 94) (name "Net-(D3-Pad2)")
      (node (ref JP3) (pin 3))
      (node (ref D3) (pin 2)))
    (net (code 95) (name "Net-(U1-Pad9)")
      (node (ref U3) (pin 13))
      (node (ref U1) (pin 9)))
    (net (code 96) (name "Net-(U1-Pad13)")
      (node (ref U3) (pin 14))
      (node (ref U1) (pin 13)))
    (net (code 97) (name "Net-(C6-Pad2)")
      (node (ref C6) (pin 2))
      (node (ref U3) (pin 2))
      (node (ref R1) (pin 1)))
    (net (code 98) (name "Net-(R1-Pad2)")
      (node (ref U3) (pin 3))
      (node (ref R1) (pin 2)))
    (net (code 99) (name "Net-(U3-Pad1)")
      (node (ref U3) (pin 1))
      (node (ref U3) (pin 4)))
    (net (code 100) (name PCM_DIN)
      (node (ref CONN2) (pin 38))
      (node (ref R20) (pin 2)))
    (net (code 101) (name PCM_FS)
      (node (ref R21) (pin 2))
      (node (ref CONN2) (pin 35)))
    (net (code 102) (name "Net-(C13-Pad1)")
      (node (ref C13) (pin 1))
      (node (ref U4) (pin 25))
      (node (ref Y2) (pin 1)))
    (net (code 103) (name "Net-(U1-Pad5)")
      (node (ref U1) (pin 5))
      (node (ref U3) (pin 12)))
    (net (code 104) (name "/BCM14_(TXD)")
      (node (ref CONN2) (pin 8)))
    (net (code 105) (name "/BCM15_(RXD)")
      (node (ref CONN2) (pin 10)))
    (net (code 106) (name "/BCM11_(SCLK)")
      (node (ref CONN2) (pin 23)))
    (net (code 107) (name "/BCM8_(CE0)")
      (node (ref CONN2) (pin 24)))
    (net (code 108) (name "/BCM7_(CE1)")
      (node (ref CONN2) (pin 26)))
    (net (code 109) (name "/BCM12_(PWM0)")
      (node (ref CONN2) (pin 32)))
    (net (code 110) (name /BCM6)
      (node (ref CONN2) (pin 31)))
    (net (code 111) (name "/BCM13_(PWM1)")
      (node (ref CONN2) (pin 33)))
    (net (code 112) (name /BCM26)
      (node (ref CONN2) (pin 37)))
    (net (code 113) (name "Net-(U1-Pad1)")
      (node (ref U1) (pin 1))
      (node (ref U3) (pin 11)))))