EESchema Schematic File Version 4
EELAYER 30 0
EELAYER END
$Descr USLetter 11000 8500
encoding utf-8
Sheet 1 1
Title "PLRI Interface"
Date "2020-08-14"
Rev ""
Comp ""
Comment1 ""
Comment2 ""
Comment3 ""
Comment4 ""
$EndDescr
Wire Wire Line
	3975 3200 3550 3200
Wire Wire Line
	4575 2600 5275 2600
Wire Wire Line
	4575 3300 5275 3300
Wire Wire Line
	3975 2500 3700 2500
Wire Wire Line
	3850 2700 3975 2700
Wire Wire Line
	3850 800  3850 1250
Connection ~ 3850 1250
Wire Wire Line
	3850 3400 3975 3400
Connection ~ 3850 2700
Wire Wire Line
	4000 1800 3850 1800
Connection ~ 3850 1800
Wire Wire Line
	4625 1350 6050 1350
Wire Wire Line
	6050 1350 6050 2800
Wire Wire Line
	6050 2800 5775 2800
Wire Wire Line
	5975 2600 5775 2600
Wire Wire Line
	5975 1550 5975 2600
$Comp
L power:+3.3V #PWR030
U 1 1 568F2465
P 5075 3725
F 0 "#PWR030" H 5075 3575 50  0001 C CNN
F 1 "+3.3V" H 5075 3865 50  0000 C CNN
F 2 "" H 5075 3725 60  0000 C CNN
F 3 "" H 5075 3725 60  0000 C CNN
	1    5075 3725
	1    0    0    -1  
$EndComp
$Comp
L power:GND #PWR026
U 1 1 568F24AF
P 4650 2400
F 0 "#PWR026" H 4650 2150 50  0001 C CNN
F 1 "GND" H 4650 2250 50  0000 C CNN
F 2 "" H 4650 2400 60  0000 C CNN
F 3 "" H 4650 2400 60  0000 C CNN
	1    4650 2400
	1    0    0    -1  
$EndComp
$Comp
L power:GND #PWR027
U 1 1 568F8020
P 4700 1000
F 0 "#PWR027" H 4700 750 50  0001 C CNN
F 1 "GND" H 4700 850 50  0000 C CNN
F 2 "" H 4700 1000 60  0000 C CNN
F 3 "" H 4700 1000 60  0000 C CNN
	1    4700 1000
	1    0    0    -1  
$EndComp
Wire Wire Line
	4150 800  4400 800 
Wire Wire Line
	4700 600  5050 600 
Wire Wire Line
	5050 600  5050 775 
Wire Wire Line
	5350 775  5475 775 
Wire Wire Line
	5775 775  6000 775 
Wire Wire Line
	6000 775  6000 750 
Wire Wire Line
	5275 3100 4875 3100
$Comp
L power:GND #PWR021
U 1 1 568FA564
P 4275 4300
F 0 "#PWR021" H 4275 4050 50  0001 C CNN
F 1 "GND" H 4275 4150 50  0000 C CNN
F 2 "" H 4275 4300 60  0000 C CNN
F 3 "" H 4275 4300 60  0000 C CNN
	1    4275 4300
	-1   0    0    -1  
$EndComp
Wire Wire Line
	3475 4600 3750 4600
Wire Wire Line
	3750 4600 3750 4175
Wire Wire Line
	4050 4175 4050 3900
Wire Wire Line
	3800 3900 4050 3900
Wire Wire Line
	3500 3900 3300 3900
Wire Wire Line
	3000 4100 3475 4100
Wire Wire Line
	3950 3600 4275 3600
Connection ~ 3300 3900
Text GLabel 3325 4350 0    60   Output ~ 0
PTT
$Comp
L power:GND #PWR029
U 1 1 569029E3
P 5025 1100
F 0 "#PWR029" H 5025 850 50  0001 C CNN
F 1 "GND" H 5025 950 50  0000 C CNN
F 2 "" H 5025 1100 60  0000 C CNN
F 3 "" H 5025 1100 60  0000 C CNN
	1    5025 1100
	1    0    0    -1  
$EndComp
Wire Wire Line
	5025 1100 5075 1100
Wire Wire Line
	5375 1100 5475 1100
Wire Wire Line
	5775 1100 6000 1100
Text GLabel 5575 4400 0    60   Input ~ 0
COS
Text GLabel 1350 3400 2    60   Input ~ 0
PTT
Wire Wire Line
	1350 3400 1150 3400
Text GLabel 1675 3300 2    60   Output ~ 0
COS
Wire Wire Line
	5575 4400 5700 4400
Wire Wire Line
	6000 4400 6050 4400
Connection ~ 6050 4400
$Comp
L power:GND #PWR034
U 1 1 5690EF46
P 5700 3925
F 0 "#PWR034" H 5700 3675 50  0001 C CNN
F 1 "GND" H 5700 3775 50  0000 C CNN
F 2 "" H 5700 3925 60  0000 C CNN
F 3 "" H 5700 3925 60  0000 C CNN
	1    5700 3925
	1    0    0    -1  
$EndComp
$Comp
L power:GND #PWR043
U 1 1 5690F139
P 6400 4600
F 0 "#PWR043" H 6400 4350 50  0001 C CNN
F 1 "GND" H 6400 4450 50  0000 C CNN
F 2 "" H 6400 4600 60  0000 C CNN
F 3 "" H 6400 4600 60  0000 C CNN
	1    6400 4600
	1    0    0    -1  
$EndComp
Wire Wire Line
	6400 4200 6625 4200
Connection ~ 6400 4200
$Comp
L power:GND #PWR052
U 1 1 5690FAFB
P 7400 4400
F 0 "#PWR052" H 7400 4150 50  0001 C CNN
F 1 "GND" H 7400 4250 50  0000 C CNN
F 2 "" H 7400 4400 60  0000 C CNN
F 3 "" H 7400 4400 60  0000 C CNN
	1    7400 4400
	1    0    0    -1  
$EndComp
Wire Wire Line
	7050 5125 6625 5125
Connection ~ 6625 4200
Wire Wire Line
	7400 4000 7600 4000
Wire Wire Line
	7600 4000 7600 4625
Wire Wire Line
	7600 4625 7050 4625
Wire Wire Line
	6900 4875 6750 4875
Wire Wire Line
	6750 4575 6750 4875
Wire Wire Line
	6750 4275 6750 4125
Wire Wire Line
	5275 2700 4700 2700
Connection ~ 6750 4875
Wire Wire Line
	1150 3300 1675 3300
$Comp
L power:GND #PWR05
U 1 1 5692010E
P 1300 3650
F 0 "#PWR05" H 1300 3400 50  0001 C CNN
F 1 "GND" H 1300 3500 50  0000 C CNN
F 2 "" H 1300 3650 60  0000 C CNN
F 3 "" H 1300 3650 60  0000 C CNN
	1    1300 3650
	1    0    0    -1  
$EndComp
Wire Wire Line
	1150 3500 1300 3500
Wire Wire Line
	1300 3500 1300 3650
Text GLabel 1350 3200 2    60   Input ~ 0
AUX1
Wire Wire Line
	1350 3200 1150 3200
Text GLabel 1350 3000 2    60   Input ~ 0
AUX2
Text GLabel 1350 2800 2    60   Input ~ 0
AUX3
Wire Wire Line
	1350 3000 1150 3000
Wire Wire Line
	1150 2800 1350 2800
Text GLabel 1675 3100 2    60   Output ~ 0
AUDIO_IN
Text GLabel 1675 2900 2    60   Input ~ 0
AUDIO_OUT
Wire Wire Line
	1675 3100 1150 3100
Wire Wire Line
	1150 2900 1675 2900
Wire Wire Line
	8150 1425 8250 1425
$Comp
L power:GND #PWR058
U 1 1 5692B723
P 8550 1725
F 0 "#PWR058" H 8550 1475 50  0001 C CNN
F 1 "GND" H 8550 1575 50  0000 C CNN
F 2 "" H 8550 1725 60  0000 C CNN
F 3 "" H 8550 1725 60  0000 C CNN
	1    8550 1725
	1    0    0    -1  
$EndComp
Wire Wire Line
	8550 1625 8550 1725
Wire Wire Line
	9775 1900 9125 1900
Wire Wire Line
	9125 1900 9125 1475
Wire Wire Line
	8825 1475 8825 1200
Wire Wire Line
	8825 1200 8550 1200
Connection ~ 8825 1200
Wire Wire Line
	9125 1200 9325 1200
Wire Wire Line
	9625 1400 9775 1400
Wire Wire Line
	8825 900  8550 900 
Wire Wire Line
	9325 900  9625 900 
Wire Wire Line
	9625 900  9625 1000
Connection ~ 9625 900 
Text GLabel 9525 1650 0    60   Output ~ 0
AUX1
Wire Wire Line
	9525 1650 9625 1650
Wire Wire Line
	8225 2900 8250 2900
$Comp
L power:GND #PWR059
U 1 1 5692E2C9
P 8550 3200
F 0 "#PWR059" H 8550 2950 50  0001 C CNN
F 1 "GND" H 8550 3050 50  0000 C CNN
F 2 "" H 8550 3200 60  0000 C CNN
F 3 "" H 8550 3200 60  0000 C CNN
	1    8550 3200
	1    0    0    -1  
$EndComp
Wire Wire Line
	8550 3100 8550 3200
Wire Wire Line
	9750 3375 9125 3375
Wire Wire Line
	9125 3375 9125 2950
Wire Wire Line
	8825 2950 8825 2675
Wire Wire Line
	9125 2675 9325 2675
Wire Wire Line
	9625 2875 9750 2875
Wire Wire Line
	8800 2375 8550 2375
Connection ~ 9325 2675
Wire Wire Line
	9325 2375 9625 2375
Wire Wire Line
	9625 2375 9625 2475
Text GLabel 9525 4725 0    60   Output ~ 0
AUX3
Wire Wire Line
	9525 3125 9600 3125
Wire Wire Line
	8150 4475 8250 4475
$Comp
L power:GND #PWR060
U 1 1 5692F71A
P 8550 4800
F 0 "#PWR060" H 8550 4550 50  0001 C CNN
F 1 "GND" H 8550 4650 50  0000 C CNN
F 2 "" H 8550 4800 60  0000 C CNN
F 3 "" H 8550 4800 60  0000 C CNN
	1    8550 4800
	1    0    0    -1  
$EndComp
Wire Wire Line
	8550 4675 8550 4800
Wire Wire Line
	9775 4975 9125 4975
Wire Wire Line
	9125 4975 9125 4550
Wire Wire Line
	8825 4550 8825 4275
Wire Wire Line
	8825 4275 8550 4275
Connection ~ 8825 4275
Wire Wire Line
	9625 4475 9775 4475
Wire Wire Line
	8850 3975 8550 3975
Connection ~ 9325 4275
Wire Wire Line
	9325 3975 9625 3975
Wire Wire Line
	9625 3975 9625 4075
Text GLabel 9525 3125 0    60   Output ~ 0
AUX2
Wire Wire Line
	9525 4725 9625 4725
Wire Wire Line
	5275 2900 4900 2900
Wire Wire Line
	4900 2900 4900 1425
Wire Wire Line
	4875 3100 4875 4100
Wire Wire Line
	4700 2700 4700 3925
NoConn ~ 1150 3600
Wire Wire Line
	5975 1550 4600 1550
Wire Wire Line
	4600 1550 4600 1900
Wire Wire Line
	4650 2400 5275 2400
$Comp
L power:+3.3V #PWR049
U 1 1 5691CD4D
P 7300 825
F 0 "#PWR049" H 7300 675 50  0001 C CNN
F 1 "+3.3V" H 7300 965 50  0000 C CNN
F 2 "" H 7300 825 60  0000 C CNN
F 3 "" H 7300 825 60  0000 C CNN
	1    7300 825 
	1    0    0    -1  
$EndComp
$Comp
L power:GND #PWR063
U 1 1 5690EE49
P 8775 5375
F 0 "#PWR063" H 8775 5125 50  0001 C CNN
F 1 "GND" H 8775 5225 50  0000 C CNN
F 2 "" H 8775 5375 60  0000 C CNN
F 3 "" H 8775 5375 60  0000 C CNN
	1    8775 5375
	1    0    0    -1  
$EndComp
Connection ~ 8775 5375
Wire Wire Line
	5275 2800 4625 2800
$Comp
L power:GND #PWR024
U 1 1 56980314
P 4600 3050
F 0 "#PWR024" H 4600 2800 50  0001 C CNN
F 1 "GND" H 4600 2900 50  0000 C CNN
F 2 "" H 4600 3050 60  0000 C CNN
F 3 "" H 4600 3050 60  0000 C CNN
	1    4600 3050
	1    0    0    -1  
$EndComp
Wire Wire Line
	5275 3000 3850 3000
Connection ~ 3850 3000
$Comp
L power:+3.3V #PWR025
U 1 1 5697C10F
P 4625 2800
F 0 "#PWR025" H 4625 2650 50  0001 C CNN
F 1 "+3.3V" H 4625 2940 50  0000 C CNN
F 2 "" H 4625 2800 60  0000 C CNN
F 3 "" H 4625 2800 60  0000 C CNN
	1    4625 2800
	1    0    0    -1  
$EndComp
$Comp
L power:GND #PWR028
U 1 1 5697CDC8
P 4700 1650
F 0 "#PWR028" H 4700 1400 50  0001 C CNN
F 1 "GND" H 4700 1500 50  0000 C CNN
F 2 "" H 4700 1650 60  0000 C CNN
F 3 "" H 4700 1650 60  0000 C CNN
	1    4700 1650
	1    0    0    -1  
$EndComp
Wire Wire Line
	3850 1250 4025 1250
Wire Wire Line
	3850 1250 3850 1800
Wire Wire Line
	3850 2700 3850 3000
Wire Wire Line
	3850 1800 3850 2700
Wire Wire Line
	6050 4400 6100 4400
Wire Wire Line
	6625 4200 6800 4200
Wire Wire Line
	8550 1200 8550 1225
Wire Wire Line
	8775 5375 9150 5375
Wire Wire Line
	3850 3000 3850 3400
$Comp
L 74xx:74LS08 U1
U 4 1 5F3C64B0
P 4325 1350
F 0 "U1" H 4325 1675 50  0000 C CNN
F 1 "74HC08" H 4325 1584 50  0000 C CNN
F 2 "Package_SO:SSOP-14_5.3x6.2mm_P0.65mm" H 4325 1350 50  0001 C CNN
F 3 "http://www.ti.com/lit/gpn/sn74LS08" H 4325 1350 50  0001 C CNN
	4    4325 1350
	1    0    0    -1  
$EndComp
$Comp
L Device:R_US R14
U 1 1 5F3D317A
P 5200 775
F 0 "R14" V 4995 775 50  0000 C CNN
F 1 "120" V 5086 775 50  0000 C CNN
F 2 "Resistor_SMD:R_0603_1608Metric" V 5240 765 50  0001 C CNN
F 3 "~" H 5200 775 50  0001 C CNN
	1    5200 775 
	0    1    1    0   
$EndComp
$Comp
L Device:R_US R11
U 1 1 5F3E0929
P 4000 800
F 0 "R11" V 3795 800 50  0000 C CNN
F 1 "3K3" V 3886 800 50  0000 C CNN
F 2 "Resistor_SMD:R_0603_1608Metric" V 4040 790 50  0001 C CNN
F 3 "~" H 4000 800 50  0001 C CNN
	1    4000 800 
	0    1    1    0   
$EndComp
$Comp
L Device:R_US R7
U 1 1 5F3F4D4D
P 3300 925
F 0 "R7" H 3200 875 50  0000 C CNN
F 1 "2M2" H 3175 950 50  0000 C CNN
F 2 "Resistor_SMD:R_0603_1608Metric" V 3340 915 50  0001 C CNN
F 3 "~" H 3300 925 50  0001 C CNN
	1    3300 925 
	-1   0    0    1   
$EndComp
$Comp
L Diode:1N914 D1
U 1 1 5F3FEB8D
P 3025 775
F 0 "D1" H 3025 992 50  0000 C CNN
F 1 "1N914" H 3025 901 50  0000 C CNN
F 2 "Diode_SMD:D_SOD-323F" H 3025 600 50  0001 C CNN
F 3 "http://www.vishay.com/docs/85622/1n914.pdf" H 3025 775 50  0001 C CNN
	1    3025 775 
	1    0    0    -1  
$EndComp
$Comp
L Device:R_POT_US R3
U 1 1 5F409296
P 1375 875
F 0 "R3" V 1170 875 50  0000 C CNN
F 1 "10K" V 1261 875 50  0000 C CNN
F 2 "Potentiometer_SMD:Potentiometer_Bourns_3314J_Vertical" H 1375 875 50  0001 C CNN
F 3 "~" H 1375 875 50  0001 C CNN
	1    1375 875 
	0    1    1    0   
$EndComp
$Comp
L Device:R_US R1
U 1 1 5F43D76D
P 1175 1400
F 0 "R1" V 970 1400 50  0000 C CNN
F 1 "100K" V 1061 1400 50  0000 C CNN
F 2 "Resistor_SMD:R_0603_1608Metric" V 1215 1390 50  0001 C CNN
F 3 "~" H 1175 1400 50  0001 C CNN
	1    1175 1400
	0    1    1    0   
$EndComp
$Comp
L Device:R_US R6
U 1 1 5F448CE8
P 3025 1300
F 0 "R6" V 2950 1300 50  0000 C CNN
F 1 "300K" V 3100 1300 50  0000 C CNN
F 2 "Resistor_SMD:R_0603_1608Metric" V 3065 1290 50  0001 C CNN
F 3 "~" H 3025 1300 50  0001 C CNN
	1    3025 1300
	0    1    1    0   
$EndComp
$Comp
L Device:R_US R16
U 1 1 5F480BA2
P 5225 1100
F 0 "R16" V 5150 1100 50  0000 C CNN
F 1 "120" V 5300 1100 50  0000 C CNN
F 2 "Resistor_SMD:R_0603_1608Metric" V 5265 1090 50  0001 C CNN
F 3 "~" H 5225 1100 50  0001 C CNN
	1    5225 1100
	0    1    1    0   
$EndComp
$Comp
L Device:LED LED1
U 1 1 5F49052C
P 5625 1100
F 0 "LED1" H 5625 1200 50  0000 C CNN
F 1 "POWER" H 5625 975 50  0000 C CNN
F 2 "LED_THT:LED_D3.0mm" H 5625 1100 50  0001 C CNN
F 3 "~" H 5625 1100 50  0001 C CNN
	1    5625 1100
	1    0    0    -1  
$EndComp
$Comp
L Device:LED LED2
U 1 1 5F4A805B
P 5625 775
F 0 "LED2" H 5625 875 50  0000 C CNN
F 1 "DTMF" H 5625 675 50  0000 C CNN
F 2 "LED_THT:LED_D3.0mm" H 5625 775 50  0001 C CNN
F 3 "~" H 5625 775 50  0001 C CNN
	1    5625 775 
	1    0    0    -1  
$EndComp
$Comp
L Device:Crystal_Small Y1
U 1 1 5F4C4CB6
P 1400 2250
F 0 "Y1" V 1400 2325 50  0000 L CNN
F 1 "3.579545" V 1250 2075 50  0000 L CNN
F 2 "Crystal:Crystal_SMD_5032-2Pin_5.0x3.2mm" H 1400 2250 50  0001 C CNN
F 3 "~" H 1400 2250 50  0001 C CNN
	1    1400 2250
	0    1    -1   0   
$EndComp
$Comp
L Connector:DB9_Female CONN1
U 1 1 5F4D765E
P 850 3200
F 0 "CONN1" H 875 2650 50  0000 C CNN
F 1 "TO RADIO" H 800 3775 50  0000 C CNN
F 2 "Connector_PinHeader_2.54mm:PinHeader_2x05_P2.54mm_Horizontal" H 850 3200 50  0001 C CNN
F 3 " ~" H 850 3200 50  0001 C CNN
	1    850  3200
	-1   0    0    1   
$EndComp
$Comp
L Device:R_US R13
U 1 1 5F4EE1B0
P 4725 4100
F 0 "R13" V 4650 4100 50  0000 C CNN
F 1 "3K3" V 4800 4100 50  0000 C CNN
F 2 "Resistor_SMD:R_0603_1608Metric" V 4765 4090 50  0001 C CNN
F 3 "~" H 4725 4100 50  0001 C CNN
	1    4725 4100
	0    -1   1    0   
$EndComp
$Comp
L Device:LED LED3
U 1 1 5F4FC3B3
P 3800 3600
F 0 "LED3" H 3800 3700 50  0000 C CNN
F 1 "PTT" H 3800 3475 50  0000 C CNN
F 2 "LED_THT:LED_D3.0mm" H 3800 3600 50  0001 C CNN
F 3 "~" H 3800 3600 50  0001 C CNN
	1    3800 3600
	-1   0    0    -1  
$EndComp
$Comp
L Device:R_US R9
U 1 1 5F50EB37
P 3650 3900
F 0 "R9" V 3575 3900 50  0000 C CNN
F 1 "1K" V 3725 3900 50  0000 C CNN
F 2 "Resistor_SMD:R_0603_1608Metric" V 3690 3890 50  0001 C CNN
F 3 "~" H 3650 3900 50  0001 C CNN
	1    3650 3900
	0    -1   1    0   
$EndComp
$Comp
L Device:R_US R12
U 1 1 5F53BAA2
P 4275 3750
F 0 "R12" H 4150 3800 50  0000 C CNN
F 1 "120" H 4150 3725 50  0000 C CNN
F 2 "Resistor_SMD:R_0603_1608Metric" V 4315 3740 50  0001 C CNN
F 3 "~" H 4275 3750 50  0001 C CNN
	1    4275 3750
	-1   0    0    -1  
$EndComp
$Comp
L Device:R_US R8
U 1 1 5F556BF5
P 3300 3750
F 0 "R8" H 3175 3800 50  0000 C CNN
F 1 "2K2" H 3175 3725 50  0000 C CNN
F 2 "Resistor_SMD:R_0603_1608Metric" V 3340 3740 50  0001 C CNN
F 3 "~" H 3300 3750 50  0001 C CNN
	1    3300 3750
	-1   0    0    -1  
$EndComp
Connection ~ 4275 3900
Wire Wire Line
	8825 2675 8550 2675
Connection ~ 8825 2675
Wire Wire Line
	8550 2675 8550 2700
$Comp
L Device:LED LED4
U 1 1 5F68EA1D
P 6750 3975
F 0 "LED4" H 6750 4075 50  0000 C CNN
F 1 "COS" H 6750 3850 50  0000 C CNN
F 2 "LED_THT:LED_D3.0mm" H 6750 3975 50  0001 C CNN
F 3 "~" H 6750 3975 50  0001 C CNN
	1    6750 3975
	0    -1   -1   0   
$EndComp
$Comp
L Device:LED LED7
U 1 1 5F6CD65A
P 9000 3975
F 0 "LED7" H 9000 4075 50  0000 C CNN
F 1 "AUX3" H 9000 3850 50  0000 C CNN
F 2 "LED_THT:LED_D3.0mm" H 9000 3975 50  0001 C CNN
F 3 "~" H 9000 3975 50  0001 C CNN
	1    9000 3975
	1    0    0    -1  
$EndComp
$Comp
L Device:LED LED6
U 1 1 5F6E9716
P 8950 2375
F 0 "LED6" H 8950 2475 50  0000 C CNN
F 1 "AUX2" H 8950 2250 50  0000 C CNN
F 2 "LED_THT:LED_D3.0mm" H 8950 2375 50  0001 C CNN
F 3 "~" H 8950 2375 50  0001 C CNN
	1    8950 2375
	1    0    0    -1  
$EndComp
$Comp
L Device:LED LED5
U 1 1 5F700949
P 8975 900
F 0 "LED5" H 8975 1000 50  0000 C CNN
F 1 "AUX1" H 8975 775 50  0000 C CNN
F 2 "LED_THT:LED_D3.0mm" H 8975 900 50  0001 C CNN
F 3 "~" H 8975 900 50  0001 C CNN
	1    8975 900 
	1    0    0    -1  
$EndComp
$Comp
L Diode:1N914 D3
U 1 1 5F722A0B
P 8975 1475
F 0 "D3" H 8975 1575 50  0000 C CNN
F 1 "1N914" H 8975 1375 50  0000 C CNN
F 2 "Diode_SMD:D_SOD-323F" H 8975 1300 50  0001 C CNN
F 3 "http://www.vishay.com/docs/85622/1n914.pdf" H 8975 1475 50  0001 C CNN
	1    8975 1475
	1    0    0    -1  
$EndComp
$Comp
L Diode:1N914 D4
U 1 1 5F7317B7
P 8975 2950
F 0 "D4" H 8975 3050 50  0000 C CNN
F 1 "1N914" H 8975 2850 50  0000 C CNN
F 2 "Diode_SMD:D_SOD-323F" H 8975 2775 50  0001 C CNN
F 3 "http://www.vishay.com/docs/85622/1n914.pdf" H 8975 2950 50  0001 C CNN
	1    8975 2950
	1    0    0    -1  
$EndComp
$Comp
L Diode:1N914 D5
U 1 1 5F73F33B
P 8975 4550
F 0 "D5" H 8975 4650 50  0000 C CNN
F 1 "1N914" H 8975 4450 50  0000 C CNN
F 2 "Diode_SMD:D_SOD-323F" H 8975 4375 50  0001 C CNN
F 3 "http://www.vishay.com/docs/85622/1n914.pdf" H 8975 4550 50  0001 C CNN
	1    8975 4550
	1    0    0    -1  
$EndComp
$Comp
L Device:R_US R23
U 1 1 5F749371
P 5850 4400
F 0 "R23" V 5775 4400 50  0000 C CNN
F 1 "3K3" V 5925 4400 50  0000 C CNN
F 2 "Resistor_SMD:R_0603_1608Metric" V 5890 4390 50  0001 C CNN
F 3 "~" H 5850 4400 50  0001 C CNN
	1    5850 4400
	0    1    1    0   
$EndComp
$Comp
L Device:R_US R32
U 1 1 5F7521F9
P 6950 4200
F 0 "R32" V 6875 4200 50  0000 C CNN
F 1 "3K3" V 7025 4200 50  0000 C CNN
F 2 "Resistor_SMD:R_0603_1608Metric" V 6990 4190 50  0001 C CNN
F 3 "~" H 6950 4200 50  0001 C CNN
	1    6950 4200
	0    1    1    0   
$EndComp
$Comp
L Device:R_US R25
U 1 1 5F75A016
P 6050 4100
F 0 "R25" V 5975 4100 50  0000 C CNN
F 1 "3K3" V 6125 4100 50  0000 C CNN
F 2 "Resistor_SMD:R_0603_1608Metric" V 6090 4090 50  0001 C CNN
F 3 "~" H 6050 4100 50  0001 C CNN
	1    6050 4100
	1    0    0    -1  
$EndComp
$Comp
L Device:R_US R31
U 1 1 5F75F6FF
P 6750 4425
F 0 "R31" V 6675 4425 50  0000 C CNN
F 1 "120" V 6825 4425 50  0000 C CNN
F 2 "Resistor_SMD:R_0603_1608Metric" V 6790 4415 50  0001 C CNN
F 3 "~" H 6750 4425 50  0001 C CNN
	1    6750 4425
	1    0    0    -1  
$EndComp
$Comp
L Device:R_US R34
U 1 1 5F7671AC
P 7400 3850
F 0 "R34" V 7325 3850 50  0000 C CNN
F 1 "1K" V 7475 3850 50  0000 C CNN
F 2 "Resistor_SMD:R_0603_1608Metric" V 7440 3840 50  0001 C CNN
F 3 "~" H 7400 3850 50  0001 C CNN
	1    7400 3850
	1    0    0    -1  
$EndComp
Connection ~ 7400 4000
$Comp
L Device:R_US R37
U 1 1 5F77B12C
P 8000 4475
F 0 "R37" V 7925 4475 50  0000 C CNN
F 1 "3K3" V 8075 4475 50  0000 C CNN
F 2 "Resistor_SMD:R_0603_1608Metric" V 8040 4465 50  0001 C CNN
F 3 "~" H 8000 4475 50  0001 C CNN
	1    8000 4475
	0    1    1    0   
$EndComp
$Comp
L Device:R_US R28
U 1 1 5F788351
P 6400 4050
F 0 "R28" V 6325 4050 50  0000 C CNN
F 1 "1K" V 6475 4050 50  0000 C CNN
F 2 "Resistor_SMD:R_0603_1608Metric" V 6440 4040 50  0001 C CNN
F 3 "~" H 6400 4050 50  0001 C CNN
	1    6400 4050
	1    0    0    -1  
$EndComp
Wire Wire Line
	9125 4275 9325 4275
$Comp
L Device:R_US R44
U 1 1 5F791E47
P 8975 4275
F 0 "R44" V 8900 4275 50  0000 C CNN
F 1 "1K" V 9050 4275 50  0000 C CNN
F 2 "Resistor_SMD:R_0603_1608Metric" V 9015 4265 50  0001 C CNN
F 3 "~" H 8975 4275 50  0001 C CNN
	1    8975 4275
	0    1    1    0   
$EndComp
$Comp
L Device:R_US R47
U 1 1 5F7A6676
P 9325 4125
F 0 "R47" V 9250 4125 50  0000 C CNN
F 1 "2K2" V 9400 4125 50  0000 C CNN
F 2 "Resistor_SMD:R_0603_1608Metric" V 9365 4115 50  0001 C CNN
F 3 "~" H 9325 4125 50  0001 C CNN
	1    9325 4125
	1    0    0    -1  
$EndComp
$Comp
L Device:R_US R41
U 1 1 5F7C6DCA
P 8550 4125
F 0 "R41" V 8475 4125 50  0000 C CNN
F 1 "120" V 8625 4125 50  0000 C CNN
F 2 "Resistor_SMD:R_0603_1608Metric" V 8590 4115 50  0001 C CNN
F 3 "~" H 8550 4125 50  0001 C CNN
	1    8550 4125
	1    0    0    -1  
$EndComp
Connection ~ 8550 4275
$Comp
L Device:R_US R38
U 1 1 5F7E70EB
P 8225 2500
F 0 "R38" H 8350 2550 50  0000 C CNN
F 1 "3K3" H 8350 2450 50  0000 C CNN
F 2 "Resistor_SMD:R_0603_1608Metric" V 8265 2490 50  0001 C CNN
F 3 "~" H 8225 2500 50  0001 C CNN
	1    8225 2500
	-1   0    0    1   
$EndComp
$Comp
L Device:R_US R36
U 1 1 5F7EEF19
P 8000 1425
F 0 "R36" V 7925 1425 50  0000 C CNN
F 1 "3K3" V 8075 1425 50  0000 C CNN
F 2 "Resistor_SMD:R_0603_1608Metric" V 8040 1415 50  0001 C CNN
F 3 "~" H 8000 1425 50  0001 C CNN
	1    8000 1425
	0    1    1    0   
$EndComp
$Comp
L Device:R_US R40
U 1 1 5F7FA749
P 8550 2525
F 0 "R40" V 8475 2525 50  0000 C CNN
F 1 "120" V 8625 2525 50  0000 C CNN
F 2 "Resistor_SMD:R_0603_1608Metric" V 8590 2515 50  0001 C CNN
F 3 "~" H 8550 2525 50  0001 C CNN
	1    8550 2525
	1    0    0    -1  
$EndComp
$Comp
L Device:R_US R46
U 1 1 5F7FAF68
P 9325 2525
F 0 "R46" V 9250 2525 50  0000 C CNN
F 1 "2K2" V 9400 2525 50  0000 C CNN
F 2 "Resistor_SMD:R_0603_1608Metric" V 9365 2515 50  0001 C CNN
F 3 "~" H 9325 2525 50  0001 C CNN
	1    9325 2525
	1    0    0    -1  
$EndComp
$Comp
L Device:R_US R43
U 1 1 5F7FB7C2
P 8975 2675
F 0 "R43" V 8900 2675 50  0000 C CNN
F 1 "1K" V 9050 2675 50  0000 C CNN
F 2 "Resistor_SMD:R_0603_1608Metric" V 9015 2665 50  0001 C CNN
F 3 "~" H 8975 2675 50  0001 C CNN
	1    8975 2675
	0    1    1    0   
$EndComp
Connection ~ 8550 2675
$Comp
L Device:R_US R39
U 1 1 5F824174
P 8550 1050
F 0 "R39" V 8475 1050 50  0000 C CNN
F 1 "120" V 8625 1050 50  0000 C CNN
F 2 "Resistor_SMD:R_0603_1608Metric" V 8590 1040 50  0001 C CNN
F 3 "~" H 8550 1050 50  0001 C CNN
	1    8550 1050
	1    0    0    -1  
$EndComp
$Comp
L Device:R_US R42
U 1 1 5F824804
P 8975 1200
F 0 "R42" V 8900 1200 50  0000 C CNN
F 1 "1K" V 9050 1200 50  0000 C CNN
F 2 "Resistor_SMD:R_0603_1608Metric" V 9015 1190 50  0001 C CNN
F 3 "~" H 8975 1200 50  0001 C CNN
	1    8975 1200
	0    1    1    0   
$EndComp
$Comp
L Device:R_US R45
U 1 1 5F824F2B
P 9325 1050
F 0 "R45" V 9250 1050 50  0000 C CNN
F 1 "2K2" V 9400 1050 50  0000 C CNN
F 2 "Resistor_SMD:R_0603_1608Metric" V 9365 1040 50  0001 C CNN
F 3 "~" H 9325 1050 50  0001 C CNN
	1    9325 1050
	1    0    0    -1  
$EndComp
Connection ~ 8550 1200
$Comp
L Jumper:Jumper_3_Open JP3
U 1 1 5F867BD8
P 9775 1650
F 0 "JP3" V 9550 1750 50  0000 L CNN
F 1 "AUX1" V 9775 1750 50  0000 L CNN
F 2 "Connector_PinHeader_2.54mm:PinHeader_1x03_P2.54mm_Vertical" H 9775 1650 50  0001 C CNN
F 3 "~" H 9775 1650 50  0001 C CNN
F 4 "Active High" V 9625 1950 50  0000 C CNN "Pin1"
F 5 "Active Low" V 9925 1925 50  0000 C CNN "Pin3"
	1    9775 1650
	0    1    1    0   
$EndComp
$Comp
L Jumper:Jumper_3_Open JP4
U 1 1 5F8BCEFE
P 9750 3125
F 0 "JP4" V 9500 3200 50  0000 L CNN
F 1 "AUX2" V 9750 3225 50  0000 L CNN
F 2 "Connector_PinHeader_2.54mm:PinHeader_1x03_P2.54mm_Vertical" H 9750 3125 50  0001 C CNN
F 3 "~" H 9750 3125 50  0001 C CNN
F 4 "Active High" V 9600 3425 50  0000 C CNN "Pin1"
F 5 "Active Low" V 9900 3400 50  0000 C CNN "Pin3"
	1    9750 3125
	0    1    1    0   
$EndComp
$Comp
L Jumper:Jumper_3_Open JP5
U 1 1 5F90F1B4
P 9775 4725
F 0 "JP5" V 9525 4825 50  0000 L CNN
F 1 "AUX3" V 9775 4825 50  0000 L CNN
F 2 "Connector_PinHeader_2.54mm:PinHeader_1x03_P2.54mm_Vertical" H 9775 4725 50  0001 C CNN
F 3 "~" H 9775 4725 50  0001 C CNN
F 4 "Active High" V 9625 5025 50  0000 C CNN "Pin1"
F 5 "Active Low" V 9925 5000 50  0000 C CNN "Pin3"
	1    9775 4725
	0    1    1    0   
$EndComp
$Comp
L Jumper:Jumper_3_Open JP2
U 1 1 5F953954
P 7050 4875
F 0 "JP2" V 6750 4975 50  0000 L CNN
F 1 "COS INPUT" V 7050 4975 50  0000 L CNN
F 2 "Connector_PinHeader_2.54mm:PinHeader_1x03_P2.54mm_Vertical" H 7050 4875 50  0001 C CNN
F 3 "~" H 7050 4875 50  0001 C CNN
F 4 "Active High" V 6900 5175 50  0000 C CNN "Pin1"
F 5 "Active Low" V 7200 5150 50  0000 C CNN "Pin3"
	1    7050 4875
	0    1    1    0   
$EndComp
$Comp
L Jumper:Jumper_3_Open JP1
U 1 1 5F98B1CB
P 3475 4350
F 0 "JP1" V 3375 4450 50  0000 L CNN
F 1 "PTT" V 3475 4450 50  0000 L CNN
F 2 "Connector_PinHeader_2.54mm:PinHeader_1x03_P2.54mm_Vertical" H 3475 4350 50  0001 C CNN
F 3 "~" H 3475 4350 50  0001 C CNN
F 4 "Active High" V 3350 4100 50  0000 C CNN "Pin1"
F 5 "Active Low" V 3600 4125 50  0000 C CNN "Pin3"
	1    3475 4350
	0    1    1    0   
$EndComp
$Comp
L Diode:1N914 D2
U 1 1 5F9D59B0
P 3900 4175
F 0 "D2" H 3900 4275 50  0000 C CNN
F 1 "1N914" H 3900 4075 50  0000 C CNN
F 2 "Diode_SMD:D_SOD-323F" H 3900 4000 50  0001 C CNN
F 3 "http://www.vishay.com/docs/85622/1n914.pdf" H 3900 4175 50  0001 C CNN
	1    3900 4175
	-1   0    0    -1  
$EndComp
$Comp
L Device:C_Small C22
U 1 1 5F9E9AEF
P 9150 5275
F 0 "C22" H 9242 5321 50  0000 L CNN
F 1 "0.1uF" H 9242 5230 50  0000 L CNN
F 2 "Capacitor_SMD:C_0603_1608Metric" H 9150 5275 50  0001 C CNN
F 3 "~" H 9150 5275 50  0001 C CNN
	1    9150 5275
	-1   0    0    -1  
$EndComp
$Comp
L Device:C_Small C21
U 1 1 5F9F1620
P 8775 5275
F 0 "C21" H 8950 5325 50  0000 R CNN
F 1 "0.1uF" H 9025 5200 50  0000 R CNN
F 2 "Capacitor_SMD:C_0603_1608Metric" H 8775 5275 50  0001 C CNN
F 3 "~" H 8775 5275 50  0001 C CNN
	1    8775 5275
	-1   0    0    -1  
$EndComp
$Comp
L Device:C_Small C15
U 1 1 5FA06E47
P 2875 975
F 0 "C15" H 3075 1050 50  0000 R CNN
F 1 "0.1uF" H 3125 900 50  0000 R CNN
F 2 "Capacitor_SMD:C_0603_1608Metric" H 2875 975 50  0001 C CNN
F 3 "~" H 2875 975 50  0001 C CNN
	1    2875 975 
	-1   0    0    -1  
$EndComp
$Comp
L Device:C_Small C6
U 1 1 5FA207AC
P 1375 1225
F 0 "C6" H 1300 1300 50  0000 R CNN
F 1 "0.1uF" H 1325 1175 50  0000 R CNN
F 2 "Capacitor_SMD:C_0603_1608Metric" H 1375 1225 50  0001 C CNN
F 3 "~" H 1375 1225 50  0001 C CNN
	1    1375 1225
	-1   0    0    -1  
$EndComp
$Comp
L Connector_Generic:Conn_02x20_Odd_Even CONN2
U 1 1 5FA8D13A
P 5475 2700
F 0 "CONN2" H 5525 1500 50  0000 C CNN
F 1 "GPIO" H 5525 1600 50  0000 C CNN
F 2 "Connector_PinSocket_2.54mm:PinSocket_2x20_P2.54mm_Vertical" H 5475 2700 50  0001 C CNN
F 3 "~" H 5475 2700 50  0001 C CNN
	1    5475 2700
	1    0    0    1   
$EndComp
$Comp
L 74xx:74LS08 U1
U 2 1 5FB63D30
P 4300 1900
F 0 "U1" H 4300 2225 50  0000 C CNN
F 1 "74HC08" H 4300 2134 50  0000 C CNN
F 2 "Package_SO:SSOP-14_5.3x6.2mm_P0.65mm" H 4300 1900 50  0001 C CNN
F 3 "http://www.ti.com/lit/gpn/sn74LS08" H 4300 1900 50  0001 C CNN
	2    4300 1900
	1    0    0    -1  
$EndComp
$Comp
L 74xx:74LS08 U1
U 3 1 5FBA412F
P 4275 2600
F 0 "U1" H 4275 2925 50  0000 C CNN
F 1 "74HC08" H 4275 2834 50  0000 C CNN
F 2 "Package_SO:SSOP-14_5.3x6.2mm_P0.65mm" H 4275 2600 50  0001 C CNN
F 3 "http://www.ti.com/lit/gpn/sn74LS08" H 4275 2600 50  0001 C CNN
	3    4275 2600
	1    0    0    -1  
$EndComp
$Comp
L 74xx:74LS08 U1
U 1 1 5FBD7BB3
P 4275 3300
F 0 "U1" H 4275 3625 50  0000 C CNN
F 1 "74HC08" H 4275 3534 50  0000 C CNN
F 2 "Package_SO:SSOP-14_5.3x6.2mm_P0.65mm" H 4275 3300 50  0001 C CNN
F 3 "http://www.ti.com/lit/gpn/sn74LS08" H 4275 3300 50  0001 C CNN
	1    4275 3300
	1    0    0    -1  
$EndComp
$Comp
L 74xx:74LS08 U1
U 5 1 5FBF83C5
P 1200 7775
F 0 "U1" H 1200 7800 50  0000 C CNN
F 1 "74HC08" H 1200 7725 50  0000 C CNN
F 2 "Package_SO:SSOP-14_5.3x6.2mm_P0.65mm" H 1200 7775 50  0001 C CNN
F 3 "http://www.ti.com/lit/gpn/sn74LS08" H 1200 7775 50  0001 C CNN
	5    1200 7775
	0    -1   -1   0   
$EndComp
$Comp
L power:VCC #PWR042
U 1 1 5FCE0848
P 6400 3900
F 0 "#PWR042" H 6400 3750 50  0001 C CNN
F 1 "VCC" H 6420 4074 50  0000 C CNN
F 2 "" H 6400 3900 60  0000 C CNN
F 3 "" H 6400 3900 60  0000 C CNN
	1    6400 3900
	1    0    0    -1  
$EndComp
$Comp
L power:VCC #PWR046
U 1 1 5FCE4EA9
P 6750 3825
F 0 "#PWR046" H 6750 3675 50  0001 C CNN
F 1 "VCC" H 6770 3999 50  0000 C CNN
F 2 "" H 6750 3825 60  0000 C CNN
F 3 "" H 6750 3825 60  0000 C CNN
	1    6750 3825
	1    0    0    -1  
$EndComp
$Comp
L power:VCC #PWR051
U 1 1 5FCE5105
P 7400 3700
F 0 "#PWR051" H 7400 3550 50  0001 C CNN
F 1 "VCC" H 7420 3874 50  0000 C CNN
F 2 "" H 7400 3700 60  0000 C CNN
F 3 "" H 7400 3700 60  0000 C CNN
	1    7400 3700
	1    0    0    -1  
$EndComp
$Comp
L power:VCC #PWR068
U 1 1 5FD01B6C
P 9625 3925
F 0 "#PWR068" H 9625 3775 50  0001 C CNN
F 1 "VCC" H 9645 4099 50  0000 C CNN
F 2 "" H 9625 3925 60  0000 C CNN
F 3 "" H 9625 3925 60  0000 C CNN
	1    9625 3925
	1    0    0    -1  
$EndComp
$Comp
L power:VCC #PWR067
U 1 1 5FD04E26
P 9625 2375
F 0 "#PWR067" H 9625 2225 50  0001 C CNN
F 1 "VCC" H 9645 2549 50  0000 C CNN
F 2 "" H 9625 2375 60  0000 C CNN
F 3 "" H 9625 2375 60  0000 C CNN
	1    9625 2375
	1    0    0    -1  
$EndComp
Connection ~ 9625 2375
$Comp
L power:VCC #PWR066
U 1 1 5FD0B21B
P 9625 900
F 0 "#PWR066" H 9625 750 50  0001 C CNN
F 1 "VCC" H 9645 1074 50  0000 C CNN
F 2 "" H 9625 900 60  0000 C CNN
F 3 "" H 9625 900 60  0000 C CNN
	1    9625 900 
	1    0    0    -1  
$EndComp
$Comp
L power:VCC #PWR037
U 1 1 5FD1229A
P 6000 750
F 0 "#PWR037" H 6000 600 50  0001 C CNN
F 1 "VCC" H 6020 924 50  0000 C CNN
F 2 "" H 6000 750 60  0000 C CNN
F 3 "" H 6000 750 60  0000 C CNN
	1    6000 750 
	1    0    0    -1  
$EndComp
$Comp
L power:VCC #PWR038
U 1 1 5FD1FFE0
P 6000 1100
F 0 "#PWR038" H 6000 950 50  0001 C CNN
F 1 "VCC" H 6020 1274 50  0000 C CNN
F 2 "" H 6000 1100 60  0000 C CNN
F 3 "" H 6000 1100 60  0000 C CNN
	1    6000 1100
	1    0    0    -1  
$EndComp
$Comp
L power:VCC #PWR062
U 1 1 5FD23C5B
P 8775 5175
F 0 "#PWR062" H 8775 5025 50  0001 C CNN
F 1 "VCC" H 8775 5325 50  0000 C CNN
F 2 "" H 8775 5175 60  0000 C CNN
F 3 "" H 8775 5175 60  0000 C CNN
	1    8775 5175
	1    0    0    -1  
$EndComp
Wire Wire Line
	8775 5175 9150 5175
Connection ~ 8775 5175
$Comp
L Interface_Telecom:HT9170D U3
U 1 1 5F3FA299
P 2225 1800
F 0 "U3" H 2225 1950 50  0000 C CNN
F 1 "HT9170D" H 2250 1800 50  0000 C CNN
F 2 "Package_SO:SOIC-18W_7.5x11.6mm_P1.27mm" H 2225 1150 50  0001 C CNN
F 3 "http://www.holtek.com/documents/10179/116711/9170v111.pdf" H 2125 2500 50  0001 C CNN
	1    2225 1800
	1    0    0    -1  
$EndComp
Wire Wire Line
	1725 1400 1375 1400
Wire Wire Line
	1725 1500 1025 1500
Wire Wire Line
	1025 1500 1025 1400
Wire Wire Line
	1725 1300 1650 1300
Wire Wire Line
	1650 1300 1650 1700
Wire Wire Line
	1650 1700 1725 1700
Wire Wire Line
	1725 1900 1650 1900
Wire Wire Line
	1650 1900 1650 1800
Wire Wire Line
	1650 1800 1725 1800
$Comp
L power:GND #PWR07
U 1 1 5F6BC24C
P 1400 1800
F 0 "#PWR07" H 1400 1550 50  0001 C CNN
F 1 "GND" H 1400 1650 50  0000 C CNN
F 2 "" H 1400 1800 60  0000 C CNN
F 3 "" H 1400 1800 60  0000 C CNN
	1    1400 1800
	1    0    0    -1  
$EndComp
$Comp
L power:VCC #PWR04
U 1 1 5F6BEF4B
P 1175 1800
F 0 "#PWR04" H 1175 1650 50  0001 C CNN
F 1 "VCC" H 1195 1974 50  0000 C CNN
F 2 "" H 1175 1800 60  0000 C CNN
F 3 "" H 1175 1800 60  0000 C CNN
	1    1175 1800
	1    0    0    -1  
$EndComp
Wire Wire Line
	1400 1800 1650 1800
Connection ~ 1650 1800
Wire Wire Line
	1725 2000 1175 2000
Wire Wire Line
	1175 2000 1175 1800
Wire Wire Line
	1375 1325 1375 1400
Connection ~ 1375 1400
Wire Wire Line
	1375 1400 1325 1400
Text GLabel 1075 875  0    60   Input ~ 0
AUDIO_IN
Wire Wire Line
	1375 1125 1375 1025
Wire Wire Line
	1225 875  1075 875 
$Comp
L power:GND #PWR09
U 1 1 5F77BA1F
P 1675 875
F 0 "#PWR09" H 1675 625 50  0001 C CNN
F 1 "GND" H 1675 725 50  0000 C CNN
F 2 "" H 1675 875 60  0000 C CNN
F 3 "" H 1675 875 60  0000 C CNN
	1    1675 875 
	1    0    0    -1  
$EndComp
Wire Wire Line
	1525 875  1675 875 
Wire Wire Line
	1400 2150 1725 2150
Wire Wire Line
	1725 2150 1725 2200
Wire Wire Line
	1400 2350 1725 2350
Wire Wire Line
	1725 2350 1725 2300
$Comp
L power:GND #PWR013
U 1 1 5FA480FC
P 2225 2500
F 0 "#PWR013" H 2225 2250 50  0001 C CNN
F 1 "GND" H 2225 2350 50  0000 C CNN
F 2 "" H 2225 2500 60  0000 C CNN
F 3 "" H 2225 2500 60  0000 C CNN
	1    2225 2500
	1    0    0    -1  
$EndComp
Wire Wire Line
	3175 1300 3175 1400
Wire Wire Line
	3175 1400 2725 1400
Wire Wire Line
	2725 1300 2875 1300
Wire Wire Line
	2875 1075 2875 1300
Connection ~ 2875 1300
Wire Wire Line
	2875 775  2875 875 
Wire Wire Line
	3175 775  3300 775 
Wire Wire Line
	3300 1075 2875 1075
Connection ~ 2875 1075
$Comp
L power:VCC #PWR017
U 1 1 5FB83517
P 2675 775
F 0 "#PWR017" H 2675 625 50  0001 C CNN
F 1 "VCC" H 2695 949 50  0000 C CNN
F 2 "" H 2675 775 60  0000 C CNN
F 3 "" H 2675 775 60  0000 C CNN
	1    2675 775 
	1    0    0    -1  
$EndComp
Wire Wire Line
	2675 775  2875 775 
Connection ~ 2875 775 
Wire Wire Line
	2725 1700 4025 1700
Wire Wire Line
	4025 1700 4025 1450
Wire Wire Line
	2725 1800 3700 1800
Wire Wire Line
	3700 1800 3700 2500
Wire Wire Line
	4000 2000 4000 1900
Wire Wire Line
	4000 1900 2725 1900
Wire Wire Line
	2725 2000 3550 2000
Wire Wire Line
	3550 2000 3550 3200
Text GLabel 6400 1800 2    50   Input ~ 0
PCM_DIN
Text GLabel 6400 1700 2    50   Input ~ 0
PCM_DOUT
Text GLabel 6300 2300 2    50   Input ~ 0
ID_SC
Text GLabel 4750 2300 0    50   Input ~ 0
ID_SD
Text GLabel 6750 3100 2    50   Input ~ 0
PCM_CLK
Text GLabel 4650 3500 0    50   Input ~ 0
SDA
Text GLabel 4650 3400 0    50   Input ~ 0
SCL
Text GLabel 4850 2075 0    50   Input ~ 0
PCM_FS
Wire Wire Line
	4700 1650 5275 1650
Wire Wire Line
	5275 1650 5275 1700
NoConn ~ 5775 3300
NoConn ~ 5775 3200
NoConn ~ 5275 2500
NoConn ~ 5775 2500
NoConn ~ 5775 2400
NoConn ~ 5775 2100
NoConn ~ 5275 2100
NoConn ~ 5275 2000
NoConn ~ 5275 1800
Text Notes 6350 7300 0    50   ~ 0
PCM_CLK needs to be on pin 12,\nbut that's also used for the AUX1 output.\nHow do I move the sound interface's use\nof this to some other pin?  I don't think I can\nswitch it for the IRLP side without breaking\ncompatibility with the genuine IRLP board.
Wire Wire Line
	5700 3925 6050 3925
Wire Wire Line
	6050 3925 6050 3950
Wire Wire Line
	6050 4250 6050 4400
Wire Wire Line
	4700 3925 5200 3925
Wire Wire Line
	5200 3925 5200 4875
Wire Wire Line
	5200 4875 6750 4875
$Comp
L Device:Crystal_Small Y2
U 1 1 60363623
P 2725 7000
F 0 "Y2" H 2725 7100 50  0000 C CNN
F 1 "12.288 MHz" H 3100 7000 50  0000 C CNN
F 2 "Crystal:Crystal_SMD_5032-2Pin_5.0x3.2mm" H 2725 7000 50  0001 C CNN
F 3 "~" H 2725 7000 50  0001 C CNN
	1    2725 7000
	1    0    0    -1  
$EndComp
$Comp
L Device:R_US R20
U 1 1 60363629
P 5600 7175
F 0 "R20" V 5525 7175 50  0000 C CNN
F 1 "33" V 5675 7175 50  0000 C CNN
F 2 "Resistor_SMD:R_0603_1608Metric" V 5640 7165 50  0001 C CNN
F 3 "~" H 5600 7175 50  0001 C CNN
	1    5600 7175
	0    -1   1    0   
$EndComp
$Comp
L Device:R_US R17
U 1 1 60363637
P 5375 7300
F 0 "R17" V 5300 7300 50  0000 C CNN
F 1 "33" V 5450 7300 50  0000 C CNN
F 2 "Resistor_SMD:R_0603_1608Metric" V 5415 7290 50  0001 C CNN
F 3 "~" H 5375 7300 50  0001 C CNN
	1    5375 7300
	0    -1   1    0   
$EndComp
$Comp
L Device:R_US R21
U 1 1 6036363F
P 5600 7425
F 0 "R21" V 5525 7425 50  0000 C CNN
F 1 "33" V 5675 7425 50  0000 C CNN
F 2 "Resistor_SMD:R_0603_1608Metric" V 5640 7415 50  0001 C CNN
F 3 "~" H 5600 7425 50  0001 C CNN
	1    5600 7425
	0    -1   1    0   
$EndComp
Wire Wire Line
	3675 6850 3675 6950
Wire Wire Line
	3675 6950 3475 6950
Wire Wire Line
	3475 6950 3475 6850
$Comp
L Device:R_US R18
U 1 1 6036364B
P 5375 7550
F 0 "R18" V 5300 7550 50  0000 C CNN
F 1 "33" V 5450 7550 50  0000 C CNN
F 2 "Resistor_SMD:R_0603_1608Metric" V 5415 7540 50  0001 C CNN
F 3 "~" H 5375 7550 50  0001 C CNN
	1    5375 7550
	0    -1   1    0   
$EndComp
$Comp
L power:VCC #PWR022
U 1 1 60363653
P 4525 6850
F 0 "#PWR022" H 4525 6700 50  0001 C CNN
F 1 "VCC" H 4540 7023 50  0000 C CNN
F 2 "" H 4525 6850 50  0001 C CNN
F 3 "" H 4525 6850 50  0001 C CNN
	1    4525 6850
	1    0    0    -1  
$EndComp
Wire Wire Line
	2625 6850 2625 7000
Wire Wire Line
	2825 6850 2825 7000
NoConn ~ 3025 6850
$Comp
L Device:C_Small C14
U 1 1 60363666
P 2825 7150
AR Path="/60363666" Ref="C14"  Part="1" 
AR Path="/5FA747C9/60363666" Ref="C?"  Part="1" 
F 0 "C14" H 2700 7175 50  0000 R CNN
F 1 "22pF" H 2750 7100 50  0000 R CNN
F 2 "Capacitor_SMD:C_0603_1608Metric" H 2825 7150 50  0001 C CNN
F 3 "~" H 2825 7150 50  0001 C CNN
	1    2825 7150
	-1   0    0    -1  
$EndComp
$Comp
L Device:C_Small C13
U 1 1 6036366C
P 2625 7150
AR Path="/6036366C" Ref="C13"  Part="1" 
AR Path="/5FA747C9/6036366C" Ref="C?"  Part="1" 
F 0 "C13" H 2500 7175 50  0000 R CNN
F 1 "22pF" H 2550 7100 50  0000 R CNN
F 2 "Capacitor_SMD:C_0603_1608Metric" H 2625 7150 50  0001 C CNN
F 3 "~" H 2625 7150 50  0001 C CNN
	1    2625 7150
	1    0    0    -1  
$EndComp
$Comp
L power:GND #PWR019
U 1 1 60363672
P 2725 7250
F 0 "#PWR019" H 2725 7000 50  0001 C CNN
F 1 "GND" H 2730 7077 50  0000 C CNN
F 2 "" H 2725 7250 50  0001 C CNN
F 3 "" H 2725 7250 50  0001 C CNN
	1    2725 7250
	1    0    0    -1  
$EndComp
Wire Wire Line
	2625 7050 2625 7000
Connection ~ 2625 7000
Wire Wire Line
	2825 7000 2825 7050
Connection ~ 2825 7000
Wire Wire Line
	2825 7250 2725 7250
Wire Wire Line
	2725 7250 2625 7250
Connection ~ 2725 7250
Text GLabel 5750 7300 2    50   Input ~ 0
PCM_CLK
Text GLabel 5750 7550 2    50   Input ~ 0
PCM_DOUT
Text GLabel 5750 7425 2    50   Input ~ 0
PCM_FS
Wire Wire Line
	5750 7300 5525 7300
Text GLabel 5750 7175 2    50   Input ~ 0
PCM_DIN
Wire Wire Line
	5750 7550 5525 7550
$Comp
L Device:R_US R5
U 1 1 60363685
P 2825 5025
F 0 "R5" V 2750 5025 50  0000 C CNN
F 1 "33" V 2900 5025 50  0000 C CNN
F 2 "Resistor_SMD:R_0603_1608Metric" V 2865 5015 50  0001 C CNN
F 3 "~" H 2825 5025 50  0001 C CNN
	1    2825 5025
	0    -1   1    0   
$EndComp
Text GLabel 4075 5025 2    50   Input ~ 0
SCL
Text GLabel 2675 5025 0    50   Input ~ 0
SDA
$Comp
L Device:R_US R10
U 1 1 6036368D
P 3925 5025
F 0 "R10" V 3850 5025 50  0000 C CNN
F 1 "33" V 4000 5025 50  0000 C CNN
F 2 "Resistor_SMD:R_0603_1608Metric" V 3965 5015 50  0001 C CNN
F 3 "~" H 3925 5025 50  0001 C CNN
	1    3925 5025
	0    1    1    0   
$EndComp
Wire Wire Line
	2975 5025 3375 5025
Wire Wire Line
	3775 5025 3475 5025
Text Label 2325 5450 2    50   ~ 0
AVDD
Wire Wire Line
	4800 5650 4525 5650
$Comp
L power:GNDA #PWR?
U 1 1 603636A3
P 2000 5150
AR Path="/5FA747C9/603636A3" Ref="#PWR?"  Part="1" 
AR Path="/603636A3" Ref="#PWR011"  Part="1" 
F 0 "#PWR011" H 2000 4900 50  0001 C CNN
F 1 "GNDA" H 2005 4977 50  0000 C CNN
F 2 "" H 2000 5150 50  0001 C CNN
F 3 "" H 2000 5150 50  0001 C CNN
	1    2000 5150
	1    0    0    -1  
$EndComp
$Comp
L power:GNDA #PWR014
U 1 1 603636AC
P 2275 5650
F 0 "#PWR014" H 2275 5400 50  0001 C CNN
F 1 "GNDA" H 2200 5700 50  0000 C CNN
F 2 "" H 2275 5650 50  0001 C CNN
F 3 "" H 2275 5650 50  0001 C CNN
	1    2275 5650
	1    0    0    -1  
$EndComp
Wire Wire Line
	2275 5650 2325 5650
$Comp
L Device:CP1_Small C?
U 1 1 603636B3
P 4925 5850
AR Path="/5FA747C9/603636B3" Ref="C?"  Part="1" 
AR Path="/603636B3" Ref="C16"  Part="1" 
F 0 "C16" V 5025 5925 50  0000 C CNN
F 1 "10uF" V 5025 5725 50  0000 C CNN
F 2 "Capacitor_THT:CP_Radial_D5.0mm_P2.00mm" H 4925 5850 50  0001 C CNN
F 3 "~" H 4925 5850 50  0001 C CNN
	1    4925 5850
	0    -1   -1   0   
$EndComp
$Comp
L Device:R_US R26
U 1 1 603636CB
P 6150 5850
F 0 "R26" V 6075 5850 50  0000 C CNN
F 1 "100" V 6225 5850 50  0000 C CNN
F 2 "Resistor_SMD:R_0603_1608Metric" V 6190 5840 50  0001 C CNN
F 3 "~" H 6150 5850 50  0001 C CNN
	1    6150 5850
	0    1    1    0   
$EndComp
$Comp
L power:GNDA #PWR?
U 1 1 603636E1
P 5475 6650
AR Path="/5FA747C9/603636E1" Ref="#PWR?"  Part="1" 
AR Path="/603636E1" Ref="#PWR032"  Part="1" 
F 0 "#PWR032" H 5475 6400 50  0001 C CNN
F 1 "GNDA" H 5480 6477 50  0000 C CNN
F 2 "" H 5475 6650 50  0001 C CNN
F 3 "" H 5475 6650 50  0001 C CNN
	1    5475 6650
	1    0    0    -1  
$EndComp
$Comp
L Device:C_Small C8
U 1 1 603636F3
P 1475 5375
AR Path="/603636F3" Ref="C8"  Part="1" 
AR Path="/5FA747C9/603636F3" Ref="C?"  Part="1" 
F 0 "C8" H 1650 5375 50  0000 R CNN
F 1 "0.1uF" H 1700 5300 50  0000 R CNN
F 2 "Capacitor_SMD:C_0603_1608Metric" H 1475 5375 50  0001 C CNN
F 3 "~" H 1475 5375 50  0001 C CNN
	1    1475 5375
	1    0    0    -1  
$EndComp
Wire Wire Line
	1475 5275 1150 5275
Text GLabel 7950 5500 2    50   Output ~ 0
AUDIO_OUT
Text GLabel 1025 6500 0    50   Input ~ 0
AUDIO_IN
$Comp
L power:GNDA #PWR?
U 1 1 60406859
P 4575 5150
AR Path="/5FA747C9/60406859" Ref="#PWR?"  Part="1" 
AR Path="/60406859" Ref="#PWR023"  Part="1" 
F 0 "#PWR023" H 4575 4900 50  0001 C CNN
F 1 "GNDA" H 4580 4977 50  0000 C CNN
F 2 "" H 4575 5150 50  0001 C CNN
F 3 "" H 4575 5150 50  0001 C CNN
	1    4575 5150
	1    0    0    -1  
$EndComp
Wire Wire Line
	3475 5025 3475 5150
Wire Wire Line
	3375 5025 3375 5150
$Comp
L Memory_EEPROM:CAT24C128 U6
U 1 1 604E7437
P 9050 6225
F 0 "U6" H 8825 6475 50  0000 C CNN
F 1 "CAT24C128" H 9325 5950 50  0000 C CNN
F 2 "Package_SO:TSSOP-8_4.4x3mm_P0.65mm" H 9050 6225 50  0001 C CNN
F 3 "https://www.onsemi.com/pub/Collateral/CAT24C128-D.PDF" H 9050 6225 50  0001 C CNN
	1    9050 6225
	1    0    0    -1  
$EndComp
$Comp
L Regulator_Linear:TPS79333-EP U2
U 1 1 604EEB43
P 2075 4325
F 0 "U2" H 2075 4667 50  0000 C CNN
F 1 "TPS79333-EP" H 2075 4576 50  0000 C CNN
F 2 "Package_TO_SOT_SMD:SOT-23-5" H 2075 4650 50  0001 C CIN
F 3 "http://www.ti.com/lit/ds/symlink/tps79333-ep.pdf" H 2075 4375 50  0001 C CNN
	1    2075 4325
	-1   0    0    -1  
$EndComp
$Comp
L Device:R_US R?
U 1 1 605204B7
P 9550 5950
AR Path="/5FA747C9/605204B7" Ref="R?"  Part="1" 
AR Path="/605204B7" Ref="R48"  Part="1" 
F 0 "R48" V 9475 5950 50  0000 C CNN
F 1 "1K" V 9625 5950 50  0000 C CNN
F 2 "Resistor_SMD:R_0603_1608Metric" V 9590 5940 50  0001 C CNN
F 3 "~" H 9550 5950 50  0001 C CNN
	1    9550 5950
	-1   0    0    1   
$EndComp
$Comp
L Device:R_US R?
U 1 1 60520A72
P 9800 5950
AR Path="/5FA747C9/60520A72" Ref="R?"  Part="1" 
AR Path="/60520A72" Ref="R49"  Part="1" 
F 0 "R49" V 9725 5950 50  0000 C CNN
F 1 "3K9" V 9875 5950 50  0000 C CNN
F 2 "Resistor_SMD:R_0603_1608Metric" V 9840 5940 50  0001 C CNN
F 3 "~" H 9800 5950 50  0001 C CNN
	1    9800 5950
	1    0    0    -1  
$EndComp
Text GLabel 10150 6225 2    50   Input ~ 0
ID_SC
Text GLabel 10150 6125 2    50   Input ~ 0
ID_SD
Wire Wire Line
	10150 6225 9800 6225
Wire Wire Line
	9450 6325 9550 6325
Wire Wire Line
	9550 6325 9550 6100
$Comp
L Device:R_US R?
U 1 1 605A8BAB
P 10050 5950
AR Path="/5FA747C9/605A8BAB" Ref="R?"  Part="1" 
AR Path="/605A8BAB" Ref="R50"  Part="1" 
F 0 "R50" V 9975 5950 50  0000 C CNN
F 1 "3K9" V 10125 5950 50  0000 C CNN
F 2 "Resistor_SMD:R_0603_1608Metric" V 10090 5940 50  0001 C CNN
F 3 "~" H 10050 5950 50  0001 C CNN
	1    10050 5950
	1    0    0    -1  
$EndComp
Wire Wire Line
	9800 6100 9800 6225
Connection ~ 9800 6225
Wire Wire Line
	9800 6225 9450 6225
$Comp
L power:VCC #PWR064
U 1 1 605D2759
P 9050 5800
F 0 "#PWR064" H 9050 5650 50  0001 C CNN
F 1 "VCC" H 9070 5974 50  0000 C CNN
F 2 "" H 9050 5800 60  0000 C CNN
F 3 "" H 9050 5800 60  0000 C CNN
	1    9050 5800
	1    0    0    -1  
$EndComp
Wire Wire Line
	9550 5800 9800 5800
Wire Wire Line
	9800 5800 10050 5800
Connection ~ 9800 5800
$Comp
L Device:Jumper JP6
U 1 1 6061B4BE
P 9850 6500
F 0 "JP6" H 9850 6650 50  0000 C CNN
F 1 "WRITE ENABLE" H 9850 6400 50  0000 C CNN
F 2 "Connector_PinHeader_2.54mm:PinHeader_1x02_P2.54mm_Vertical" H 9850 6500 50  0001 C CNN
F 3 "~" H 9850 6500 50  0001 C CNN
	1    9850 6500
	1    0    0    -1  
$EndComp
$Comp
L power:GND #PWR069
U 1 1 60621530
P 10375 6500
F 0 "#PWR069" H 10375 6250 50  0001 C CNN
F 1 "GND" H 10375 6350 50  0000 C CNN
F 2 "" H 10375 6500 60  0000 C CNN
F 3 "" H 10375 6500 60  0000 C CNN
	1    10375 6500
	-1   0    0    -1  
$EndComp
Wire Wire Line
	9550 6325 9550 6500
Connection ~ 9550 6325
Wire Wire Line
	10150 6500 10375 6500
$Comp
L power:GND #PWR065
U 1 1 60647938
P 9050 6525
F 0 "#PWR065" H 9050 6275 50  0001 C CNN
F 1 "GND" H 9050 6375 50  0000 C CNN
F 2 "" H 9050 6525 60  0000 C CNN
F 3 "" H 9050 6525 60  0000 C CNN
	1    9050 6525
	-1   0    0    -1  
$EndComp
$Comp
L power:GND #PWR061
U 1 1 60648EAE
P 8650 6525
F 0 "#PWR061" H 8650 6275 50  0001 C CNN
F 1 "GND" H 8650 6375 50  0000 C CNN
F 2 "" H 8650 6525 60  0000 C CNN
F 3 "" H 8650 6525 60  0000 C CNN
	1    8650 6525
	-1   0    0    -1  
$EndComp
Wire Wire Line
	8650 6325 8650 6525
Wire Wire Line
	8650 6125 8650 6225
Wire Wire Line
	8650 6325 8650 6225
Connection ~ 8650 6325
Connection ~ 8650 6225
Wire Wire Line
	5775 3500 5775 3600
$Comp
L power:+5V #PWR036
U 1 1 606F8043
P 5875 3700
F 0 "#PWR036" H 5875 3550 50  0001 C CNN
F 1 "+5V" H 5890 3873 50  0000 C CNN
F 2 "" H 5875 3700 50  0001 C CNN
F 3 "" H 5875 3700 50  0001 C CNN
	1    5875 3700
	1    0    0    -1  
$EndComp
$Comp
L power:PWR_FLAG #FLG01
U 1 1 60712B59
P 6500 825
F 0 "#FLG01" H 6500 900 50  0001 C CNN
F 1 "PWR_FLAG" H 6500 998 50  0000 C CNN
F 2 "" H 6500 825 50  0001 C CNN
F 3 "~" H 6500 825 50  0001 C CNN
	1    6500 825 
	1    0    0    1   
$EndComp
$Comp
L power:GND #PWR054
U 1 1 60747DAA
P 7900 850
F 0 "#PWR054" H 7900 600 50  0001 C CNN
F 1 "GND" H 7900 700 50  0000 C CNN
F 2 "" H 7900 850 60  0000 C CNN
F 3 "" H 7900 850 60  0000 C CNN
	1    7900 850 
	1    0    0    -1  
$EndComp
$Comp
L power:GNDA #PWR?
U 1 1 6074D50D
P 8200 850
AR Path="/5FA747C9/6074D50D" Ref="#PWR?"  Part="1" 
AR Path="/6074D50D" Ref="#PWR056"  Part="1" 
F 0 "#PWR056" H 8200 600 50  0001 C CNN
F 1 "GNDA" H 8200 700 50  0000 C CNN
F 2 "" H 8200 850 50  0001 C CNN
F 3 "" H 8200 850 50  0001 C CNN
	1    8200 850 
	1    0    0    -1  
$EndComp
$Comp
L power:PWR_FLAG #FLG03
U 1 1 6075636A
P 8050 850
F 0 "#FLG03" H 8050 925 50  0001 C CNN
F 1 "PWR_FLAG" H 8050 1023 50  0000 C CNN
F 2 "" H 8050 850 50  0001 C CNN
F 3 "~" H 8050 850 50  0001 C CNN
	1    8050 850 
	1    0    0    -1  
$EndComp
Wire Wire Line
	7900 850  8050 850 
Connection ~ 8050 850 
Wire Wire Line
	8050 850  8200 850 
$Comp
L Device:CP1_Small C?
U 1 1 6080AD8A
P 2375 4525
AR Path="/5FA747C9/6080AD8A" Ref="C?"  Part="1" 
AR Path="/6080AD8A" Ref="C12"  Part="1" 
F 0 "C12" H 2200 4550 50  0000 C CNN
F 1 "10uF" H 2200 4475 50  0000 C CNN
F 2 "Capacitor_THT:CP_Radial_D5.0mm_P2.00mm" H 2375 4525 50  0001 C CNN
F 3 "~" H 2375 4525 50  0001 C CNN
	1    2375 4525
	-1   0    0    -1  
$EndComp
$Comp
L power:+5V #PWR015
U 1 1 608363B5
P 2600 4075
F 0 "#PWR015" H 2600 3925 50  0001 C CNN
F 1 "+5V" H 2615 4248 50  0000 C CNN
F 2 "" H 2600 4075 50  0001 C CNN
F 3 "" H 2600 4075 50  0001 C CNN
	1    2600 4075
	-1   0    0    -1  
$EndComp
Wire Wire Line
	2600 4225 2600 4325
Wire Wire Line
	2375 4225 2600 4225
Connection ~ 2600 4225
Wire Wire Line
	2375 4325 2600 4325
Connection ~ 2600 4325
Wire Wire Line
	2600 4325 2725 4325
Wire Wire Line
	2075 4625 2375 4625
$Comp
L power:GND #PWR016
U 1 1 608A27A5
P 2375 4625
F 0 "#PWR016" H 2375 4375 50  0001 C CNN
F 1 "GND" H 2375 4475 50  0000 C CNN
F 2 "" H 2375 4625 60  0000 C CNN
F 3 "" H 2375 4625 60  0000 C CNN
	1    2375 4625
	1    0    0    -1  
$EndComp
$Comp
L Device:C_Small C10
U 1 1 608AAC22
P 1775 4525
AR Path="/608AAC22" Ref="C10"  Part="1" 
AR Path="/5FA747C9/608AAC22" Ref="C?"  Part="1" 
F 0 "C10" H 1750 4600 50  0000 R CNN
F 1 "0.01uF" H 1925 4350 50  0000 R CNN
F 2 "Capacitor_SMD:C_0603_1608Metric" H 1775 4525 50  0001 C CNN
F 3 "~" H 1775 4525 50  0001 C CNN
	1    1775 4525
	1    0    0    -1  
$EndComp
$Comp
L power:GNDA #PWR?
U 1 1 608AC748
P 850 4925
AR Path="/5FA747C9/608AC748" Ref="#PWR?"  Part="1" 
AR Path="/608AC748" Ref="#PWR03"  Part="1" 
F 0 "#PWR03" H 850 4675 50  0001 C CNN
F 1 "GNDA" H 855 4752 50  0000 C CNN
F 2 "" H 850 4925 50  0001 C CNN
F 3 "" H 850 4925 50  0001 C CNN
	1    850  4925
	-1   0    0    -1  
$EndComp
$Comp
L Device:C_Small C4
U 1 1 608AFE66
P 1150 4525
AR Path="/608AFE66" Ref="C4"  Part="1" 
AR Path="/5FA747C9/608AFE66" Ref="C?"  Part="1" 
F 0 "C4" H 1275 4600 50  0000 R CNN
F 1 "0.1uF" H 1250 4350 50  0000 R CNN
F 2 "Capacitor_SMD:C_0603_1608Metric" H 1150 4525 50  0001 C CNN
F 3 "~" H 1150 4525 50  0001 C CNN
	1    1150 4525
	-1   0    0    -1  
$EndComp
$Comp
L Device:CP1_Small C?
U 1 1 608B0361
P 1425 4525
AR Path="/5FA747C9/608B0361" Ref="C?"  Part="1" 
AR Path="/608B0361" Ref="C7"  Part="1" 
F 0 "C7" H 1525 4600 50  0000 C CNN
F 1 "10uF" H 1400 4350 50  0000 C CNN
F 2 "Capacitor_THT:CP_Radial_D5.0mm_P2.00mm" H 1425 4525 50  0001 C CNN
F 3 "~" H 1425 4525 50  0001 C CNN
	1    1425 4525
	-1   0    0    -1  
$EndComp
$Comp
L Device:C_Small C1
U 1 1 608EF64C
P 850 4525
AR Path="/608EF64C" Ref="C1"  Part="1" 
AR Path="/5FA747C9/608EF64C" Ref="C?"  Part="1" 
F 0 "C1" H 1050 4575 50  0000 R CNN
F 1 "0.1uF" H 1100 4450 50  0000 R CNN
F 2 "Capacitor_SMD:C_0603_1608Metric" H 850 4525 50  0001 C CNN
F 3 "~" H 850 4525 50  0001 C CNN
	1    850  4525
	-1   0    0    -1  
$EndComp
Wire Wire Line
	1775 4225 1425 4225
Wire Wire Line
	1425 4225 1425 4425
Wire Wire Line
	1775 4325 1775 4425
Wire Wire Line
	850  4625 1150 4625
Wire Wire Line
	1775 4625 1425 4625
Connection ~ 1150 4625
Connection ~ 1425 4625
Wire Wire Line
	1425 4625 1150 4625
Wire Wire Line
	1425 4225 1150 4225
Wire Wire Line
	1150 4225 1150 4425
Connection ~ 1425 4225
Wire Wire Line
	1150 4225 850  4225
Wire Wire Line
	850  4225 850  4425
Connection ~ 1150 4225
Text GLabel 4925 5550 2    50   Input ~ 0
AVDD
Text GLabel 1500 4125 2    50   Output ~ 0
AVDD
$Comp
L Device:R_US R?
U 1 1 60F17DAC
P 6725 5850
AR Path="/5FA747C9/60F17DAC" Ref="R?"  Part="1" 
AR Path="/60F17DAC" Ref="R30"  Part="1" 
F 0 "R30" V 6650 5850 50  0000 C CNN
F 1 "100" V 6800 5850 50  0000 C CNN
F 2 "Resistor_SMD:R_0603_1608Metric" V 6765 5840 50  0001 C CNN
F 3 "~" H 6725 5850 50  0001 C CNN
	1    6725 5850
	0    1    1    0   
$EndComp
$Comp
L Device:R_POT_US R35
U 1 1 6124F42A
P 7900 5725
F 0 "R35" V 7695 5725 50  0000 C CNN
F 1 "10K" V 7786 5725 50  0000 C CNN
F 2 "Potentiometer_SMD:Potentiometer_Bourns_3314J_Vertical" H 7900 5725 50  0001 C CNN
F 3 "~" H 7900 5725 50  0001 C CNN
	1    7900 5725
	0    1    -1   0   
$EndComp
Wire Wire Line
	1425 4125 1425 4225
NoConn ~ 2325 5850
NoConn ~ 2325 5950
Wire Wire Line
	4800 5150 4575 5150
Wire Wire Line
	4800 5150 4800 5650
Connection ~ 4575 5150
$Comp
L Device:CP1_Small C?
U 1 1 614DD722
P 4925 6250
AR Path="/5FA747C9/614DD722" Ref="C?"  Part="1" 
AR Path="/614DD722" Ref="C18"  Part="1" 
F 0 "C18" V 5025 6325 50  0000 C CNN
F 1 "10uF" V 5025 6125 50  0000 C CNN
F 2 "Capacitor_THT:CP_Radial_D5.0mm_P2.00mm" H 4925 6250 50  0001 C CNN
F 3 "~" H 4925 6250 50  0001 C CNN
	1    4925 6250
	0    -1   -1   0   
$EndComp
Wire Wire Line
	4525 5850 4825 5850
Wire Wire Line
	4825 6250 4725 6250
Wire Wire Line
	4725 6250 4725 6150
Wire Wire Line
	4725 6150 4525 6150
$Comp
L Device:R_US R?
U 1 1 615601D6
P 5475 6500
AR Path="/5FA747C9/615601D6" Ref="R?"  Part="1" 
AR Path="/615601D6" Ref="R19"  Part="1" 
F 0 "R19" H 5550 6400 50  0000 C CNN
F 1 "47K" V 5550 6500 50  0000 C CNN
F 2 "Resistor_SMD:R_0603_1608Metric" V 5515 6490 50  0001 C CNN
F 3 "~" H 5475 6500 50  0001 C CNN
	1    5475 6500
	-1   0    0    1   
$EndComp
$Comp
L Device:R_US R?
U 1 1 61560AD1
P 6000 6500
AR Path="/5FA747C9/61560AD1" Ref="R?"  Part="1" 
AR Path="/61560AD1" Ref="R24"  Part="1" 
F 0 "R24" H 6075 6400 50  0000 C CNN
F 1 "47K" V 6075 6500 50  0000 C CNN
F 2 "Resistor_SMD:R_0603_1608Metric" V 6040 6490 50  0001 C CNN
F 3 "~" H 6000 6500 50  0001 C CNN
	1    6000 6500
	-1   0    0    1   
$EndComp
$Comp
L power:GNDA #PWR?
U 1 1 615653B2
P 6000 6650
AR Path="/5FA747C9/615653B2" Ref="#PWR?"  Part="1" 
AR Path="/615653B2" Ref="#PWR039"  Part="1" 
F 0 "#PWR039" H 6000 6400 50  0001 C CNN
F 1 "GNDA" H 6005 6477 50  0000 C CNN
F 2 "" H 6000 6650 50  0001 C CNN
F 3 "" H 6000 6650 50  0001 C CNN
	1    6000 6650
	1    0    0    -1  
$EndComp
Wire Wire Line
	6575 5850 6350 5850
Wire Wire Line
	6875 5850 6950 5850
Wire Wire Line
	6950 5850 6950 5725
$Comp
L Device:C_Small C20
U 1 1 617FB487
P 7525 5725
AR Path="/617FB487" Ref="C20"  Part="1" 
AR Path="/5FA747C9/617FB487" Ref="C?"  Part="1" 
F 0 "C20" V 7400 5775 50  0000 R CNN
F 1 "0.33uF" V 7625 5825 50  0000 R CNN
F 2 "Capacitor_SMD:C_0603_1608Metric" H 7525 5725 50  0001 C CNN
F 3 "~" H 7525 5725 50  0001 C CNN
	1    7525 5725
	0    1    1    0   
$EndComp
Wire Wire Line
	5475 6250 5475 6350
Wire Wire Line
	6000 6350 6000 5850
$Comp
L power:GNDA #PWR?
U 1 1 618CE5B5
P 5650 5350
AR Path="/5FA747C9/618CE5B5" Ref="#PWR?"  Part="1" 
AR Path="/618CE5B5" Ref="#PWR033"  Part="1" 
F 0 "#PWR033" H 5650 5100 50  0001 C CNN
F 1 "GNDA" H 5655 5177 50  0000 C CNN
F 2 "" H 5650 5350 50  0001 C CNN
F 3 "" H 5650 5350 50  0001 C CNN
	1    5650 5350
	1    0    0    -1  
$EndComp
Connection ~ 6000 5850
Wire Wire Line
	5025 5850 6000 5850
Connection ~ 5475 6250
Wire Wire Line
	5025 6250 5475 6250
Wire Wire Line
	9450 6125 10050 6125
Wire Wire Line
	10050 6100 10050 6125
Connection ~ 10050 6125
Wire Wire Line
	10050 6125 10150 6125
Wire Wire Line
	3375 6850 3375 7550
Wire Wire Line
	3375 7550 5225 7550
Wire Wire Line
	3475 7425 5450 7425
Connection ~ 3475 6950
Wire Wire Line
	3575 6850 3575 7300
Wire Wire Line
	3575 7300 5225 7300
Wire Wire Line
	3775 6850 3775 7175
Wire Wire Line
	3775 7175 5450 7175
$Comp
L power:GND #PWR020
U 1 1 6036362F
P 4125 6950
F 0 "#PWR020" H 4125 6700 50  0001 C CNN
F 1 "GND" H 4130 6777 50  0000 C CNN
F 2 "" H 4125 6950 50  0001 C CNN
F 3 "" H 4125 6950 50  0001 C CNN
	1    4125 6950
	1    0    0    -1  
$EndComp
Wire Wire Line
	3475 7425 3475 6950
Wire Wire Line
	1500 4125 1425 4125
$Comp
L power:VCC #PWR012
U 1 1 61CDFC5F
P 2225 1100
F 0 "#PWR012" H 2225 950 50  0001 C CNN
F 1 "VCC" H 2245 1274 50  0000 C CNN
F 2 "" H 2225 1100 60  0000 C CNN
F 3 "" H 2225 1100 60  0000 C CNN
	1    2225 1100
	1    0    0    -1  
$EndComp
$Comp
L Device:R_US R?
U 1 1 61F1954C
P 1450 6200
AR Path="/5FA747C9/61F1954C" Ref="R?"  Part="1" 
AR Path="/61F1954C" Ref="R2"  Part="1" 
F 0 "R2" V 1375 6175 50  0000 C CNN
F 1 "5K6" V 1550 6200 50  0000 C CNN
F 2 "Resistor_SMD:R_0603_1608Metric" V 1490 6190 50  0001 C CNN
F 3 "~" H 1450 6200 50  0001 C CNN
	1    1450 6200
	0    1    1    0   
$EndComp
$Comp
L Device:CP1_Small C?
U 1 1 61F1CBDD
P 2150 6200
AR Path="/5FA747C9/61F1CBDD" Ref="C?"  Part="1" 
AR Path="/61F1CBDD" Ref="C11"  Part="1" 
F 0 "C11" V 2050 6100 50  0000 C CNN
F 1 "1uF" V 2050 6300 50  0000 C CNN
F 2 "Capacitor_THT:CP_Radial_D5.0mm_P2.00mm" H 2150 6200 50  0001 C CNN
F 3 "~" H 2150 6200 50  0001 C CNN
	1    2150 6200
	0    1    1    0   
$EndComp
$Comp
L Device:C_Small C9
U 1 1 61F6114D
P 1875 6300
AR Path="/61F6114D" Ref="C9"  Part="1" 
AR Path="/5FA747C9/61F6114D" Ref="C?"  Part="1" 
F 0 "C9" H 2050 6350 50  0000 R CNN
F 1 "220pF" H 2125 6225 50  0000 R CNN
F 2 "Capacitor_SMD:C_0603_1608Metric" H 1875 6300 50  0001 C CNN
F 3 "~" H 1875 6300 50  0001 C CNN
	1    1875 6300
	1    0    0    -1  
$EndComp
$Comp
L Device:R_US R?
U 1 1 61F6809E
P 1725 6350
AR Path="/5FA747C9/61F6809E" Ref="R?"  Part="1" 
AR Path="/61F6809E" Ref="R4"  Part="1" 
F 0 "R4" H 1850 6300 50  0000 C CNN
F 1 "5K6" H 1875 6400 50  0000 C CNN
F 2 "Resistor_SMD:R_0603_1608Metric" V 1765 6340 50  0001 C CNN
F 3 "~" H 1725 6350 50  0001 C CNN
	1    1725 6350
	-1   0    0    1   
$EndComp
Wire Wire Line
	2325 6150 2325 6200
Wire Wire Line
	2250 6200 2325 6200
Connection ~ 2325 6200
Wire Wire Line
	2325 6200 2325 6250
Wire Wire Line
	1600 6200 1725 6200
$Comp
L power:GNDA #PWR08
U 1 1 61FDDAB0
P 1875 6625
F 0 "#PWR08" H 1875 6375 50  0001 C CNN
F 1 "GNDA" H 1880 6452 50  0000 C CNN
F 2 "" H 1875 6625 50  0001 C CNN
F 3 "" H 1875 6625 50  0001 C CNN
	1    1875 6625
	1    0    0    -1  
$EndComp
Connection ~ 1725 6200
Wire Wire Line
	1725 6200 1875 6200
Connection ~ 1875 6200
Wire Wire Line
	1875 6200 2050 6200
Wire Wire Line
	1725 6500 1875 6500
Wire Wire Line
	1875 6500 1875 6625
Wire Wire Line
	1875 6500 1875 6400
$Comp
L Device:R_US R27
U 1 1 620463EE
P 6200 6250
F 0 "R27" V 6125 6250 50  0000 C CNN
F 1 "100" V 6275 6250 50  0000 C CNN
F 2 "Resistor_SMD:R_0603_1608Metric" V 6240 6240 50  0001 C CNN
F 3 "~" H 6200 6250 50  0001 C CNN
	1    6200 6250
	0    1    1    0   
$EndComp
Connection ~ 4050 3900
Wire Wire Line
	4050 3900 4275 3900
$Comp
L Amplifier_Operational:LM321 U5
U 1 1 626E7249
P 6650 5450
F 0 "U5" H 6994 5496 50  0000 L CNN
F 1 "LM321" H 6994 5405 50  0000 L CNN
F 2 "Package_TO_SOT_SMD:SOT-23-5" H 6650 5450 50  0001 C CNN
F 3 "http://www.ti.com/lit/ds/symlink/lm321.pdf" H 6650 5450 50  0001 C CNN
	1    6650 5450
	1    0    0    -1  
$EndComp
Wire Wire Line
	6950 5725 7425 5725
Wire Wire Line
	7625 5725 7750 5725
Wire Wire Line
	7950 5500 7900 5500
Wire Wire Line
	7900 5500 7900 5575
$Comp
L power:GNDA #PWR?
U 1 1 62811531
P 8225 5725
AR Path="/5FA747C9/62811531" Ref="#PWR?"  Part="1" 
AR Path="/62811531" Ref="#PWR057"  Part="1" 
F 0 "#PWR057" H 8225 5475 50  0001 C CNN
F 1 "GNDA" H 8230 5552 50  0000 C CNN
F 2 "" H 8225 5725 50  0001 C CNN
F 3 "" H 8225 5725 50  0001 C CNN
	1    8225 5725
	1    0    0    -1  
$EndComp
Wire Wire Line
	8225 5725 8050 5725
Wire Wire Line
	6950 5450 6950 5725
Connection ~ 6950 5725
Wire Wire Line
	5650 5350 6250 5350
Text GLabel 6200 5000 0    50   Input ~ 0
AVDD
Wire Wire Line
	6550 5000 6200 5000
Wire Wire Line
	6350 6250 6350 5850
Connection ~ 6350 5850
Wire Wire Line
	6350 5850 6300 5850
Wire Wire Line
	6350 5550 6350 5850
Wire Wire Line
	5475 6250 6050 6250
Wire Wire Line
	850  4625 850  4925
Connection ~ 850  4625
Wire Wire Line
	2600 4075 2600 4225
Wire Wire Line
	3300 3600 3650 3600
Wire Wire Line
	3300 3600 3000 3600
Connection ~ 3300 3600
Wire Wire Line
	3000 3600 3000 3700
$Comp
L power:VCC #PWR018
U 1 1 62A14D32
P 2725 3600
F 0 "#PWR018" H 2725 3450 50  0001 C CNN
F 1 "VCC" H 2745 3774 50  0000 C CNN
F 2 "" H 2725 3600 60  0000 C CNN
F 3 "" H 2725 3600 60  0000 C CNN
	1    2725 3600
	1    0    0    -1  
$EndComp
Connection ~ 3000 3600
Wire Wire Line
	9150 3975 9325 3975
Connection ~ 9325 3975
Wire Wire Line
	9625 3925 9625 3975
Connection ~ 9625 3975
Wire Wire Line
	9100 2375 9325 2375
Connection ~ 9325 2375
Connection ~ 9325 1200
Wire Wire Line
	9125 900  9325 900 
Connection ~ 9325 900 
Wire Wire Line
	6550 5750 6250 5750
Wire Wire Line
	6250 5750 6250 5350
Connection ~ 6250 5350
Wire Wire Line
	6250 5350 6350 5350
Text Label 5275 3300 2    50   ~ 0
BCM4_(GPCLK0)
Text Label 5275 3000 2    50   ~ 0
BCM27
Text Label 5275 2900 2    50   ~ 0
BCM22
Text Label 5775 2900 0    50   ~ 0
BCM23
Text Label 5775 3100 0    50   ~ 0
BCM18_(PCM_CLK)
Text Label 5275 2700 2    50   ~ 0
BCM10_(MOSI)
Text Label 5275 2600 2    50   ~ 0
BCM9_(MISO)
Wire Wire Line
	5275 2300 4750 2300
Text Label 5275 2300 2    50   ~ 0
BCM0_(ID_SD)
Wire Wire Line
	5775 2300 6300 2300
Text Label 5775 2300 0    50   ~ 0
BCM1_(ID_SC)
Text Label 5775 2600 0    50   ~ 0
BCM25
Wire Wire Line
	5775 1700 6400 1700
Wire Wire Line
	6400 1800 5775 1800
Text Label 5775 1700 0    50   ~ 0
BCM21_(SCLK)
Text Label 5775 1800 0    50   ~ 0
BCM20_(MOSI)
Wire Wire Line
	5050 1900 5275 1900
Text Label 5275 1900 2    50   ~ 0
BCM19_(MISO)
Wire Wire Line
	5050 1900 5050 2075
Wire Wire Line
	5050 2075 4850 2075
Text Label 5275 3100 2    50   ~ 0
BCM17
Wire Wire Line
	4650 3500 5275 3500
Wire Wire Line
	5275 3400 4650 3400
Wire Wire Line
	5275 3200 4775 3200
Wire Wire Line
	4775 3200 4775 3050
Wire Wire Line
	4775 3050 4600 3050
Text Label 5275 3500 2    50   ~ 0
BCM2_(SDA)
Text Label 5275 3400 2    50   ~ 0
BCM3_(SCL)
$Comp
L power:GND #PWR045
U 1 1 63186A7C
P 6500 2000
F 0 "#PWR045" H 6500 1750 50  0001 C CNN
F 1 "GND" H 6500 1850 50  0000 C CNN
F 2 "" H 6500 2000 60  0000 C CNN
F 3 "" H 6500 2000 60  0000 C CNN
	1    6500 2000
	1    0    0    -1  
$EndComp
Wire Wire Line
	5775 2000 5900 2000
Wire Wire Line
	5775 2200 5900 2200
Wire Wire Line
	5900 2200 5900 2000
Connection ~ 5900 2000
Wire Wire Line
	5900 2000 6500 2000
$Comp
L power:GND #PWR041
U 1 1 6321715D
P 6400 2700
F 0 "#PWR041" H 6400 2450 50  0001 C CNN
F 1 "GND" H 6400 2550 50  0000 C CNN
F 2 "" H 6400 2700 60  0000 C CNN
F 3 "" H 6400 2700 60  0000 C CNN
	1    6400 2700
	1    0    0    -1  
$EndComp
Wire Wire Line
	6400 2700 6200 2700
Text Label 5775 2800 0    50   ~ 0
BCM24
Wire Wire Line
	5775 3000 6200 3000
Wire Wire Line
	6200 3000 6200 2700
Connection ~ 6200 2700
Wire Wire Line
	6200 2700 5775 2700
$Comp
L power:GND #PWR040
U 1 1 63292233
P 6075 3400
F 0 "#PWR040" H 6075 3150 50  0001 C CNN
F 1 "GND" H 6075 3250 50  0000 C CNN
F 2 "" H 6075 3400 60  0000 C CNN
F 3 "" H 6075 3400 60  0000 C CNN
	1    6075 3400
	1    0    0    -1  
$EndComp
Wire Wire Line
	5775 3400 6075 3400
Wire Wire Line
	5875 3700 5775 3700
Wire Wire Line
	5775 3700 5775 3600
Connection ~ 5775 3600
$Comp
L power:+5V #PWR044
U 1 1 633C2E3A
P 6500 825
F 0 "#PWR044" H 6500 675 50  0001 C CNN
F 1 "+5V" H 6500 975 50  0000 C CNN
F 2 "" H 6500 825 50  0001 C CNN
F 3 "" H 6500 825 50  0001 C CNN
	1    6500 825 
	1    0    0    -1  
$EndComp
$Comp
L power:+3.3V #PWR047
U 1 1 633C3A14
P 6925 825
F 0 "#PWR047" H 6925 675 50  0001 C CNN
F 1 "+3.3V" H 6925 965 50  0000 C CNN
F 2 "" H 6925 825 60  0000 C CNN
F 3 "" H 6925 825 60  0000 C CNN
	1    6925 825 
	1    0    0    -1  
$EndComp
Wire Wire Line
	5075 3725 5275 3725
Wire Wire Line
	5275 3725 5275 3600
$Comp
L power:PWR_FLAG #FLG02
U 1 1 6365E4B4
P 6925 825
F 0 "#FLG02" H 6925 900 50  0001 C CNN
F 1 "PWR_FLAG" H 6925 998 50  0000 C CNN
F 2 "" H 6925 825 50  0001 C CNN
F 3 "~" H 6925 825 50  0001 C CNN
	1    6925 825 
	1    0    0    1   
$EndComp
$Comp
L power:GND #PWR010
U 1 1 639961C0
P 1700 7775
F 0 "#PWR010" H 1700 7525 50  0001 C CNN
F 1 "GND" H 1700 7625 50  0000 C CNN
F 2 "" H 1700 7775 60  0000 C CNN
F 3 "" H 1700 7775 60  0000 C CNN
	1    1700 7775
	0    -1   -1   0   
$EndComp
Wire Wire Line
	3000 3600 2725 3600
$Comp
L power:VCC #PWR02
U 1 1 639C6A6F
P 700 7775
F 0 "#PWR02" H 700 7625 50  0001 C CNN
F 1 "VCC" H 720 7949 50  0000 C CNN
F 2 "" H 700 7775 60  0000 C CNN
F 3 "" H 700 7775 60  0000 C CNN
	1    700  7775
	0    -1   -1   0   
$EndComp
$Comp
L power:VCC #PWR053
U 1 1 63C95925
P 7550 825
F 0 "#PWR053" H 7550 675 50  0001 C CNN
F 1 "VCC" H 7550 975 50  0000 C CNN
F 2 "" H 7550 825 60  0000 C CNN
F 3 "" H 7550 825 60  0000 C CNN
	1    7550 825 
	1    0    0    -1  
$EndComp
Wire Wire Line
	7300 825  7550 825 
$Comp
L Device:C_Small C23
U 1 1 63D034BA
P 9525 5275
F 0 "C23" H 9617 5321 50  0000 L CNN
F 1 "0.1uF" H 9617 5230 50  0000 L CNN
F 2 "Capacitor_SMD:C_0603_1608Metric" H 9525 5275 50  0001 C CNN
F 3 "~" H 9525 5275 50  0001 C CNN
	1    9525 5275
	-1   0    0    -1  
$EndComp
$Comp
L Device:C_Small C24
U 1 1 63D03D6F
P 9900 5275
F 0 "C24" H 9992 5321 50  0000 L CNN
F 1 "0.1uF" H 9992 5230 50  0000 L CNN
F 2 "Capacitor_SMD:C_0603_1608Metric" H 9900 5275 50  0001 C CNN
F 3 "~" H 9900 5275 50  0001 C CNN
	1    9900 5275
	-1   0    0    -1  
$EndComp
$Comp
L Device:C_Small C25
U 1 1 63D057F8
P 2725 4525
F 0 "C25" H 2817 4571 50  0000 L CNN
F 1 "0.1uF" H 2817 4480 50  0000 L CNN
F 2 "Capacitor_SMD:C_0603_1608Metric" H 2725 4525 50  0001 C CNN
F 3 "~" H 2725 4525 50  0001 C CNN
	1    2725 4525
	1    0    0    -1  
$EndComp
Wire Wire Line
	9150 5175 9525 5175
Connection ~ 9150 5175
Connection ~ 9525 5175
Wire Wire Line
	9525 5175 9900 5175
Connection ~ 9900 5175
Wire Wire Line
	9900 5175 10275 5175
Wire Wire Line
	10275 5375 9900 5375
Connection ~ 9150 5375
Connection ~ 9525 5375
Wire Wire Line
	9525 5375 9150 5375
Connection ~ 9900 5375
Wire Wire Line
	9900 5375 9525 5375
Wire Wire Line
	6625 5125 6625 4200
Text Notes 9200 5750 0    79   ~ 16
Raspberry Pi\nHat Identification
Text Notes 725  5800 0    79   ~ 16
Analogue Audio Input
Text Notes 4875 5325 0    79   ~ 16
Analogue Audio Out\nMixing and Adjusting
Wire Wire Line
	6550 5000 6550 5150
Text Notes 3950 7850 0    79   ~ 16
Digital Audio IO\nand Control
Text Notes 8625 2225 0    79   ~ 16
AUX2 Output
Text Notes 8675 3825 0    79   ~ 16
AUX3 Output
Text Notes 8575 775  0    79   ~ 16
AUX1 Output
Text Notes 2075 2175 0    79   ~ 16
DTMF\nDecoder
Wire Wire Line
	9550 5800 9050 5800
Wire Wire Line
	9050 5800 9050 5925
Connection ~ 9550 5800
Text Notes 3850 4600 0    79   ~ 16
PTT Output
Text Notes 5300 4650 0    79   ~ 16
COS Input
Text Notes 9100 7325 0    50   ~ 0
PTT == Push To Talk\nCOS == Carrier Operated Squelch
Wire Wire Line
	4525 5550 4925 5550
Wire Wire Line
	1325 5475 1475 5475
Connection ~ 1325 5475
Wire Wire Line
	1150 5475 1325 5475
$Comp
L power:GNDA #PWR06
U 1 1 60363703
P 1325 5475
F 0 "#PWR06" H 1325 5225 50  0001 C CNN
F 1 "GNDA" H 1330 5302 50  0000 C CNN
F 2 "" H 1325 5475 50  0001 C CNN
F 3 "" H 1325 5475 50  0001 C CNN
	1    1325 5475
	1    0    0    -1  
$EndComp
Wire Wire Line
	2325 5550 1800 5550
Wire Wire Line
	1800 5550 1800 5275
Wire Wire Line
	1800 5275 1475 5275
Connection ~ 1475 5275
Text Notes 2900 6250 0    79   ~ 16
Audio CODEC Chip
Connection ~ 9050 5800
Text Notes 1350 3600 0    79   ~ 16
To Radio
Text Label 5775 3300 0    50   ~ 0
BCM14_(TXD)
Text Label 5775 3200 0    50   ~ 0
BCM15_(RXD)
Text Label 5275 2500 2    50   ~ 0
BCM11_(SCLK)
Text Label 5775 2500 0    50   ~ 0
BCM8_(CE0)
Text Label 5775 2400 0    50   ~ 0
BCM7_(CE1)
Text Label 5775 2100 0    50   ~ 0
BCM12_(PWM0)
Text Label 5775 1900 0    50   ~ 0
BCM16
Text Label 5275 1800 2    50   ~ 0
BCM26
Text Label 5275 2000 2    50   ~ 0
BCM13_(PWM1)
Text Label 5275 2100 2    50   ~ 0
BCM6
Text Label 5275 2200 2    50   ~ 0
BCM5
Wire Wire Line
	5775 3100 6750 3100
Wire Wire Line
	5775 2900 7850 2900
Wire Wire Line
	7850 2900 7850 4475
Wire Wire Line
	8225 2650 8225 2900
Wire Wire Line
	8225 1900 8225 2350
Wire Wire Line
	5275 2200 2925 2200
Wire Wire Line
	2925 2200 2925 1600
Wire Wire Line
	2925 1600 2725 1600
$Comp
L Device:C_Small C2
U 1 1 5FB5FEE6
P 1025 2150
AR Path="/5FB5FEE6" Ref="C2"  Part="1" 
AR Path="/5FA747C9/5FB5FEE6" Ref="C?"  Part="1" 
F 0 "C2" V 900 2125 50  0000 R CNN
F 1 "22pF" V 900 2325 50  0000 R CNN
F 2 "Capacitor_SMD:C_0603_1608Metric" H 1025 2150 50  0001 C CNN
F 3 "~" H 1025 2150 50  0001 C CNN
	1    1025 2150
	0    1    1    0   
$EndComp
$Comp
L Device:C_Small C3
U 1 1 5FB68C6A
P 1025 2350
AR Path="/5FB68C6A" Ref="C3"  Part="1" 
AR Path="/5FA747C9/5FB68C6A" Ref="C?"  Part="1" 
F 0 "C3" V 1125 2300 50  0000 R CNN
F 1 "22pF" V 1125 2550 50  0000 R CNN
F 2 "Capacitor_SMD:C_0603_1608Metric" H 1025 2350 50  0001 C CNN
F 3 "~" H 1025 2350 50  0001 C CNN
	1    1025 2350
	0    1    1    0   
$EndComp
Wire Wire Line
	1125 2150 1400 2150
Connection ~ 1400 2150
Wire Wire Line
	1400 2350 1125 2350
Connection ~ 1400 2350
$Comp
L power:GND #PWR01
U 1 1 5FBB516D
P 675 2250
F 0 "#PWR01" H 675 2000 50  0001 C CNN
F 1 "GND" H 675 2100 50  0000 C CNN
F 2 "" H 675 2250 60  0000 C CNN
F 3 "" H 675 2250 60  0000 C CNN
	1    675  2250
	1    0    0    -1  
$EndComp
Wire Wire Line
	925  2150 925  2250
Wire Wire Line
	675  2250 925  2250
Connection ~ 925  2250
Wire Wire Line
	925  2250 925  2350
$Comp
L Transistor_BJT:MMBT3906 Q1
U 1 1 5F94D997
P 3100 3900
F 0 "Q1" H 3291 3854 50  0000 L CNN
F 1 "MMBT3906" H 2700 4050 50  0000 L CNN
F 2 "Package_TO_SOT_SMD:SOT-23" H 3300 3825 50  0001 L CIN
F 3 "https://www.onsemi.com/pub/Collateral/2N3906-D.PDF" H 3100 3900 50  0001 L CNN
	1    3100 3900
	-1   0    0    1   
$EndComp
$Comp
L Transistor_BJT:MMBT3904 Q2
U 1 1 5F983D3B
P 4375 4100
F 0 "Q2" H 4566 4146 50  0000 L CNN
F 1 "MMBT3904" H 4025 3900 50  0000 L CNN
F 2 "Package_TO_SOT_SMD:SOT-23" H 4575 4025 50  0001 L CIN
F 3 "https://www.onsemi.com/pub/Collateral/2N3903-D.PDF" H 4375 4100 50  0001 L CNN
	1    4375 4100
	-1   0    0    -1  
$EndComp
$Comp
L Transistor_BJT:MMBT3904 Q4
U 1 1 5F9A602A
P 6300 4400
F 0 "Q4" H 6491 4446 50  0000 L CNN
F 1 "MMBT3904" H 5950 4200 50  0000 L CNN
F 2 "Package_TO_SOT_SMD:SOT-23" H 6500 4325 50  0001 L CIN
F 3 "https://www.onsemi.com/pub/Collateral/2N3903-D.PDF" H 6300 4400 50  0001 L CNN
	1    6300 4400
	1    0    0    -1  
$EndComp
$Comp
L Transistor_BJT:MMBT3904 Q3
U 1 1 5F9DE717
P 4600 800
F 0 "Q3" H 4791 846 50  0000 L CNN
F 1 "MMBT3904" H 4275 975 50  0000 L CNN
F 2 "Package_TO_SOT_SMD:SOT-23" H 4800 725 50  0001 L CIN
F 3 "https://www.onsemi.com/pub/Collateral/2N3903-D.PDF" H 4600 800 50  0001 L CNN
	1    4600 800 
	1    0    0    -1  
$EndComp
$Comp
L Transistor_BJT:MMBT3904 Q5
U 1 1 5FA04B9C
P 7300 4200
F 0 "Q5" H 7491 4246 50  0000 L CNN
F 1 "MMBT3904" H 6950 4000 50  0000 L CNN
F 2 "Package_TO_SOT_SMD:SOT-23" H 7500 4125 50  0001 L CIN
F 3 "https://www.onsemi.com/pub/Collateral/2N3903-D.PDF" H 7300 4200 50  0001 L CNN
	1    7300 4200
	1    0    0    -1  
$EndComp
$Comp
L Transistor_BJT:MMBT3904 Q8
U 1 1 5FA11DB8
P 8450 4475
F 0 "Q8" H 8641 4521 50  0000 L CNN
F 1 "MMBT3904" H 8100 4275 50  0000 L CNN
F 2 "Package_TO_SOT_SMD:SOT-23" H 8650 4400 50  0001 L CIN
F 3 "https://www.onsemi.com/pub/Collateral/2N3903-D.PDF" H 8450 4475 50  0001 L CNN
	1    8450 4475
	1    0    0    -1  
$EndComp
$Comp
L Transistor_BJT:MMBT3904 Q6
U 1 1 5FA31429
P 8450 1425
F 0 "Q6" H 8641 1471 50  0000 L CNN
F 1 "MMBT3904" H 8100 1225 50  0000 L CNN
F 2 "Package_TO_SOT_SMD:SOT-23" H 8650 1350 50  0001 L CIN
F 3 "https://www.onsemi.com/pub/Collateral/2N3903-D.PDF" H 8450 1425 50  0001 L CNN
	1    8450 1425
	1    0    0    -1  
$EndComp
$Comp
L Transistor_BJT:MMBT3906 Q9
U 1 1 5FA45AB0
P 9525 1200
F 0 "Q9" H 9716 1154 50  0000 L CNN
F 1 "MMBT3906" H 9725 1275 50  0000 L CNN
F 2 "Package_TO_SOT_SMD:SOT-23" H 9725 1125 50  0001 L CIN
F 3 "https://www.onsemi.com/pub/Collateral/2N3906-D.PDF" H 9525 1200 50  0001 L CNN
	1    9525 1200
	1    0    0    1   
$EndComp
$Comp
L Transistor_BJT:MMBT3904 Q7
U 1 1 5FA72228
P 8450 2900
F 0 "Q7" H 8641 2946 50  0000 L CNN
F 1 "MMBT3904" H 8100 2700 50  0000 L CNN
F 2 "Package_TO_SOT_SMD:SOT-23" H 8650 2825 50  0001 L CIN
F 3 "https://www.onsemi.com/pub/Collateral/2N3903-D.PDF" H 8450 2900 50  0001 L CNN
	1    8450 2900
	1    0    0    -1  
$EndComp
$Comp
L Transistor_BJT:MMBT3906 Q10
U 1 1 5FAB3FB5
P 9525 2675
F 0 "Q10" H 9716 2629 50  0000 L CNN
F 1 "MMBT3906" H 9725 2750 50  0000 L CNN
F 2 "Package_TO_SOT_SMD:SOT-23" H 9725 2600 50  0001 L CIN
F 3 "https://www.onsemi.com/pub/Collateral/2N3906-D.PDF" H 9525 2675 50  0001 L CNN
	1    9525 2675
	1    0    0    1   
$EndComp
$Comp
L Transistor_BJT:MMBT3906 Q11
U 1 1 5FAC0557
P 9525 4275
F 0 "Q11" H 9716 4229 50  0000 L CNN
F 1 "MMBT3906" H 9725 4350 50  0000 L CNN
F 2 "Package_TO_SOT_SMD:SOT-23" H 9725 4200 50  0001 L CIN
F 3 "https://www.onsemi.com/pub/Collateral/2N3906-D.PDF" H 9525 4275 50  0001 L CNN
	1    9525 4275
	1    0    0    1   
$EndComp
$Comp
L Device:R_POT_US R51
U 1 1 600B1D21
P 1300 6500
F 0 "R51" V 1095 6500 50  0000 C CNN
F 1 "10K" V 1186 6500 50  0000 C CNN
F 2 "Potentiometer_SMD:Potentiometer_Bourns_3314J_Vertical" H 1300 6500 50  0001 C CNN
F 3 "~" H 1300 6500 50  0001 C CNN
	1    1300 6500
	0    1    -1   0   
$EndComp
Connection ~ 1875 6500
Wire Wire Line
	1300 6200 1300 6350
Wire Wire Line
	1450 6500 1725 6500
Connection ~ 1725 6500
Wire Wire Line
	1025 6500 1150 6500
Wire Wire Line
	4900 1425 7000 1425
Wire Wire Line
	7000 1425 7000 1900
Wire Wire Line
	7000 1900 8225 1900
Wire Wire Line
	5775 1900 6675 1900
Wire Wire Line
	6675 1900 6675 2100
Wire Wire Line
	6675 2100 7850 2100
Wire Wire Line
	7850 2100 7850 1425
Connection ~ 2375 4625
Wire Wire Line
	2375 4625 2725 4625
Wire Wire Line
	2375 4425 2375 4325
Connection ~ 2375 4325
Wire Wire Line
	2725 4325 2725 4425
NoConn ~ 4525 5950
NoConn ~ 4525 6250
NoConn ~ 8800 1950
$Comp
L Device:CP1_Small C?
U 1 1 5FA5BD75
P 1150 5375
AR Path="/5FA747C9/5FA5BD75" Ref="C?"  Part="1" 
AR Path="/5FA5BD75" Ref="C5"  Part="1" 
F 0 "C5" H 1250 5450 50  0000 C CNN
F 1 "10uF" H 1275 5300 50  0000 C CNN
F 2 "Capacitor_THT:CP_Radial_D5.0mm_P2.00mm" H 1150 5375 50  0001 C CNN
F 3 "~" H 1150 5375 50  0001 C CNN
	1    1150 5375
	-1   0    0    -1  
$EndComp
Wire Wire Line
	4125 6850 4125 6950
Wire Wire Line
	3275 5150 2000 5150
Wire Wire Line
	3575 5150 4575 5150
$Comp
L Local_Symbols:WM8731_SSOP_28 U4
U 1 1 5F9BB2B7
P 3425 6000
F 0 "U4" H 3425 6125 50  0000 C CNN
F 1 "WM8731_SSOP_28" H 3425 6000 50  0000 C CNN
F 2 "Package_SO:SSOP-28_5.3x10.2mm_P0.65mm" H 3425 4650 50  0001 C CNN
F 3 "https://www.cirrus.com/products/wm8731/" H 5125 7500 50  0001 C CNN
	1    3425 6000
	1    0    0    -1  
$EndComp
Wire Wire Line
	4225 6850 4325 6850
Connection ~ 4325 6850
Wire Wire Line
	4325 6850 4525 6850
$EndSCHEMATC
